2017-10-14T22:28:01+00:00 CRITICAL Uncaught Error: Cannot use object of type WP_Error as array in /Applications/MAMP/htdocs/gomatodo/wp-content/plugins/ajax-product-filter-for-woocommerce/widget/product_widget.php:87
Stack trace:
#0 /Applications/MAMP/htdocs/gomatodo/wp-includes/class-wp-widget.php(395): Ajax_Product_Filter->widget(Array, Array)
#1 /Applications/MAMP/htdocs/gomatodo/wp-includes/widgets.php(738): WP_Widget->display_callback(Array, Array)
#2 /Applications/MAMP/htdocs/gomatodo/wp-content/themes/kallyas/sidebar.php(74): dynamic_sidebar('shop_sidebar')
#3 /Applications/MAMP/htdocs/gomatodo/wp-includes/template.php(688): require_once('/Applications/M...')
#4 /Applications/MAMP/htdocs/gomatodo/wp-includes/template.php(647): load_template('/Applications/M...', true)
#5 /Applications/MAMP/htdocs/gomatodo/wp-includes/general-template.php(122): locate_template(Array, true)
#6 /Applications/MAMP/htdocs/gomatodo/wp-content/themes/kallyas/woocommerce/zn-woocommerce-init.php(608): get_sidebar()
#7 /Applications/MAMP/htdocs/gomatodo/wp-conten

2017-10-14T22:29:48+00:00 CRITICAL Uncaught Error: Cannot use object of type WP_Error as array in /Applications/MAMP/htdocs/gomatodo/wp-content/plugins/ajax-product-filter-for-woocommerce/widget/product_widget.php:87
Stack trace:
#0 /Applications/MAMP/htdocs/gomatodo/wp-includes/class-wp-widget.php(395): Ajax_Product_Filter->widget(Array, Array)
#1 /Applications/MAMP/htdocs/gomatodo/wp-includes/widgets.php(738): WP_Widget->display_callback(Array, Array)
#2 /Applications/MAMP/htdocs/gomatodo/wp-content/themes/kallyas/sidebar.php(74): dynamic_sidebar('shop_sidebar')
#3 /Applications/MAMP/htdocs/gomatodo/wp-includes/template.php(688): require_once('/Applications/M...')
#4 /Applications/MAMP/htdocs/gomatodo/wp-includes/template.php(647): load_template('/Applications/M...', true)
#5 /Applications/MAMP/htdocs/gomatodo/wp-includes/general-template.php(122): locate_template(Array, true)
#6 /Applications/MAMP/htdocs/gomatodo/wp-content/themes/kallyas/woocommerce/zn-woocommerce-init.php(608): get_sidebar()
#7 /Applications/MAMP/htdocs/gomatodo/wp-conten

2017-10-18T14:38:46+00:00 CRITICAL Uncaught Error: Call to undefined function zn_render_content() in /Applications/MAMP/htdocs/gomatodo/wp-content/themes/kallyas/chuchi.php:38
Stack trace:
#0 /Applications/MAMP/htdocs/gomatodo/wp-includes/template-loader.php(74): include()
#1 /Applications/MAMP/htdocs/gomatodo/wp-blog-header.php(19): require_once('/Applications/M...')
#2 /Applications/MAMP/htdocs/gomatodo/index.php(17): require('/Applications/M...')
#3 {main}
  thrown

2017-10-18T14:38:50+00:00 CRITICAL Uncaught Error: Call to undefined function zn_render_content() in /Applications/MAMP/htdocs/gomatodo/wp-content/themes/kallyas/chuchi.php:38
Stack trace:
#0 /Applications/MAMP/htdocs/gomatodo/wp-includes/template-loader.php(74): include()
#1 /Applications/MAMP/htdocs/gomatodo/wp-blog-header.php(19): require_once('/Applications/M...')
#2 /Applications/MAMP/htdocs/gomatodo/index.php(17): require('/Applications/M...')
#3 {main}
  thrown

2017-10-18T14:40:40+00:00 CRITICAL Uncaught Error: Call to undefined function zn_render_content() in /Applications/MAMP/htdocs/gomatodo/wp-content/themes/kallyas/chuchi.php:38
Stack trace:
#0 /Applications/MAMP/htdocs/gomatodo/wp-includes/template-loader.php(74): include()
#1 /Applications/MAMP/htdocs/gomatodo/wp-blog-header.php(19): require_once('/Applications/M...')
#2 /Applications/MAMP/htdocs/gomatodo/index.php(17): require('/Applications/M...')
#3 {main}
  thrown

2017-10-18T15:02:54+00:00 CRITICAL Uncaught Error: Call to undefined function sum() in /Applications/MAMP/htdocs/gomatodo/wp-content/themes/kallyas/chuchi.php:39
Stack trace:
#0 /Applications/MAMP/htdocs/gomatodo/wp-includes/template-loader.php(74): include()
#1 /Applications/MAMP/htdocs/gomatodo/wp-blog-header.php(19): require_once('/Applications/M...')
#2 /Applications/MAMP/htdocs/gomatodo/index.php(17): require('/Applications/M...')
#3 {main}
  thrown

2017-10-24T21:46:30+00:00 CRITICAL Uncaught Error: Unsupported operand types in /Applications/MAMP/htdocs/gomatodo/wp-content/plugins/conversation-watson/includes/api.php:141
Stack trace:
#0 /Applications/MAMP/htdocs/gomatodo/wp-includes/class-wp-hook.php(298): WatsonConv\API::record_api_usage()
#1 /Applications/MAMP/htdocs/gomatodo/wp-includes/class-wp-hook.php(323): WP_Hook->apply_filters('', Array)
#2 /Applications/MAMP/htdocs/gomatodo/wp-includes/plugin.php(515): WP_Hook->do_action(Array)
#3 /Applications/MAMP/htdocs/gomatodo/wp-cron.php(117): do_action_ref_array('watson_save_to_...', Array)
#4 {main}
  thrown

2017-10-24T21:48:09+00:00 CRITICAL Uncaught Error: Unsupported operand types in /Applications/MAMP/htdocs/gomatodo/wp-content/plugins/conversation-watson/includes/api.php:141
Stack trace:
#0 /Applications/MAMP/htdocs/gomatodo/wp-includes/class-wp-hook.php(298): WatsonConv\API::record_api_usage()
#1 /Applications/MAMP/htdocs/gomatodo/wp-includes/class-wp-hook.php(323): WP_Hook->apply_filters('', Array)
#2 /Applications/MAMP/htdocs/gomatodo/wp-includes/plugin.php(515): WP_Hook->do_action(Array)
#3 /Applications/MAMP/htdocs/gomatodo/wp-cron.php(117): do_action_ref_array('watson_save_to_...', Array)
#4 {main}
  thrown

2017-10-24T21:51:04+00:00 CRITICAL Uncaught Error: Unsupported operand types in /Applications/MAMP/htdocs/gomatodo/wp-content/plugins/conversation-watson/includes/api.php:141
Stack trace:
#0 /Applications/MAMP/htdocs/gomatodo/wp-includes/class-wp-hook.php(298): WatsonConv\API::record_api_usage()
#1 /Applications/MAMP/htdocs/gomatodo/wp-includes/class-wp-hook.php(323): WP_Hook->apply_filters('', Array)
#2 /Applications/MAMP/htdocs/gomatodo/wp-includes/plugin.php(515): WP_Hook->do_action(Array)
#3 /Applications/MAMP/htdocs/gomatodo/wp-cron.php(117): do_action_ref_array('watson_save_to_...', Array)
#4 {main}
  thrown

2017-10-24T22:17:51+00:00 CRITICAL Uncaught Error: Unsupported operand types in /Applications/MAMP/htdocs/gomatodo/wp-content/plugins/conversation-watson/includes/api.php:141
Stack trace:
#0 /Applications/MAMP/htdocs/gomatodo/wp-includes/class-wp-hook.php(298): WatsonConv\API::record_api_usage()
#1 /Applications/MAMP/htdocs/gomatodo/wp-includes/class-wp-hook.php(323): WP_Hook->apply_filters('', Array)
#2 /Applications/MAMP/htdocs/gomatodo/wp-includes/plugin.php(515): WP_Hook->do_action(Array)
#3 /Applications/MAMP/htdocs/gomatodo/wp-cron.php(117): do_action_ref_array('watson_save_to_...', Array)
#4 {main}
  thrown

2017-10-24T22:19:14+00:00 CRITICAL Uncaught Error: Unsupported operand types in /Applications/MAMP/htdocs/gomatodo/wp-content/plugins/conversation-watson/includes/api.php:141
Stack trace:
#0 /Applications/MAMP/htdocs/gomatodo/wp-includes/class-wp-hook.php(298): WatsonConv\API::record_api_usage()
#1 /Applications/MAMP/htdocs/gomatodo/wp-includes/class-wp-hook.php(323): WP_Hook->apply_filters('', Array)
#2 /Applications/MAMP/htdocs/gomatodo/wp-includes/plugin.php(515): WP_Hook->do_action(Array)
#3 /Applications/MAMP/htdocs/gomatodo/wp-cron.php(117): do_action_ref_array('watson_save_to_...', Array)
#4 {main}
  thrown

2017-10-24T22:20:14+00:00 CRITICAL Uncaught Error: Unsupported operand types in /Applications/MAMP/htdocs/gomatodo/wp-content/plugins/conversation-watson/includes/api.php:141
Stack trace:
#0 /Applications/MAMP/htdocs/gomatodo/wp-includes/class-wp-hook.php(298): WatsonConv\API::record_api_usage()
#1 /Applications/MAMP/htdocs/gomatodo/wp-includes/class-wp-hook.php(323): WP_Hook->apply_filters('', Array)
#2 /Applications/MAMP/htdocs/gomatodo/wp-includes/plugin.php(515): WP_Hook->do_action(Array)
#3 /Applications/MAMP/htdocs/gomatodo/wp-cron.php(117): do_action_ref_array('watson_save_to_...', Array)
#4 {main}
  thrown

2017-10-24T22:21:27+00:00 CRITICAL Uncaught Error: Unsupported operand types in /Applications/MAMP/htdocs/gomatodo/wp-content/plugins/conversation-watson/includes/api.php:141
Stack trace:
#0 /Applications/MAMP/htdocs/gomatodo/wp-includes/class-wp-hook.php(298): WatsonConv\API::record_api_usage()
#1 /Applications/MAMP/htdocs/gomatodo/wp-includes/class-wp-hook.php(323): WP_Hook->apply_filters('', Array)
#2 /Applications/MAMP/htdocs/gomatodo/wp-includes/plugin.php(515): WP_Hook->do_action(Array)
#3 /Applications/MAMP/htdocs/gomatodo/wp-cron.php(117): do_action_ref_array('watson_save_to_...', Array)
#4 {main}
  thrown

2017-10-24T22:23:14+00:00 CRITICAL Uncaught Error: Unsupported operand types in /Applications/MAMP/htdocs/gomatodo/wp-content/plugins/conversation-watson/includes/api.php:141
Stack trace:
#0 /Applications/MAMP/htdocs/gomatodo/wp-includes/class-wp-hook.php(298): WatsonConv\API::record_api_usage()
#1 /Applications/MAMP/htdocs/gomatodo/wp-includes/class-wp-hook.php(323): WP_Hook->apply_filters('', Array)
#2 /Applications/MAMP/htdocs/gomatodo/wp-includes/plugin.php(515): WP_Hook->do_action(Array)
#3 /Applications/MAMP/htdocs/gomatodo/wp-cron.php(117): do_action_ref_array('watson_save_to_...', Array)
#4 {main}
  thrown

2017-10-24T22:24:43+00:00 CRITICAL Uncaught Error: Unsupported operand types in /Applications/MAMP/htdocs/gomatodo/wp-content/plugins/conversation-watson/includes/api.php:141
Stack trace:
#0 /Applications/MAMP/htdocs/gomatodo/wp-includes/class-wp-hook.php(298): WatsonConv\API::record_api_usage()
#1 /Applications/MAMP/htdocs/gomatodo/wp-includes/class-wp-hook.php(323): WP_Hook->apply_filters('', Array)
#2 /Applications/MAMP/htdocs/gomatodo/wp-includes/plugin.php(515): WP_Hook->do_action(Array)
#3 /Applications/MAMP/htdocs/gomatodo/wp-cron.php(117): do_action_ref_array('watson_save_to_...', Array)
#4 {main}
  thrown

2017-10-24T22:30:59+00:00 CRITICAL Uncaught Error: Unsupported operand types in /Applications/MAMP/htdocs/gomatodo/wp-content/plugins/conversation-watson/includes/api.php:141
Stack trace:
#0 /Applications/MAMP/htdocs/gomatodo/wp-includes/class-wp-hook.php(298): WatsonConv\API::record_api_usage()
#1 /Applications/MAMP/htdocs/gomatodo/wp-includes/class-wp-hook.php(323): WP_Hook->apply_filters('', Array)
#2 /Applications/MAMP/htdocs/gomatodo/wp-includes/plugin.php(515): WP_Hook->do_action(Array)
#3 /Applications/MAMP/htdocs/gomatodo/wp-cron.php(117): do_action_ref_array('watson_save_to_...', Array)
#4 {main}
  thrown

2017-10-24T22:32:09+00:00 CRITICAL Uncaught Error: Unsupported operand types in /Applications/MAMP/htdocs/gomatodo/wp-content/plugins/conversation-watson/includes/api.php:141
Stack trace:
#0 /Applications/MAMP/htdocs/gomatodo/wp-includes/class-wp-hook.php(298): WatsonConv\API::record_api_usage()
#1 /Applications/MAMP/htdocs/gomatodo/wp-includes/class-wp-hook.php(323): WP_Hook->apply_filters('', Array)
#2 /Applications/MAMP/htdocs/gomatodo/wp-includes/plugin.php(515): WP_Hook->do_action(Array)
#3 /Applications/MAMP/htdocs/gomatodo/wp-cron.php(117): do_action_ref_array('watson_save_to_...', Array)
#4 {main}
  thrown

2017-10-24T22:55:19+00:00 CRITICAL Uncaught Error: Unsupported operand types in /Applications/MAMP/htdocs/gomatodo/wp-content/plugins/conversation-watson/includes/api.php:141
Stack trace:
#0 /Applications/MAMP/htdocs/gomatodo/wp-includes/class-wp-hook.php(298): WatsonConv\API::record_api_usage()
#1 /Applications/MAMP/htdocs/gomatodo/wp-includes/class-wp-hook.php(323): WP_Hook->apply_filters('', Array)
#2 /Applications/MAMP/htdocs/gomatodo/wp-includes/plugin.php(515): WP_Hook->do_action(Array)
#3 /Applications/MAMP/htdocs/gomatodo/wp-cron.php(117): do_action_ref_array('watson_save_to_...', Array)
#4 {main}
  thrown

2017-10-24T22:56:34+00:00 CRITICAL Uncaught Error: Unsupported operand types in /Applications/MAMP/htdocs/gomatodo/wp-content/plugins/conversation-watson/includes/api.php:141
Stack trace:
#0 /Applications/MAMP/htdocs/gomatodo/wp-includes/class-wp-hook.php(298): WatsonConv\API::record_api_usage()
#1 /Applications/MAMP/htdocs/gomatodo/wp-includes/class-wp-hook.php(323): WP_Hook->apply_filters('', Array)
#2 /Applications/MAMP/htdocs/gomatodo/wp-includes/plugin.php(515): WP_Hook->do_action(Array)
#3 /Applications/MAMP/htdocs/gomatodo/wp-cron.php(117): do_action_ref_array('watson_save_to_...', Array)
#4 {main}
  thrown

2017-10-24T22:57:35+00:00 CRITICAL Uncaught Error: Unsupported operand types in /Applications/MAMP/htdocs/gomatodo/wp-content/plugins/conversation-watson/includes/api.php:141
Stack trace:
#0 /Applications/MAMP/htdocs/gomatodo/wp-includes/class-wp-hook.php(298): WatsonConv\API::record_api_usage()
#1 /Applications/MAMP/htdocs/gomatodo/wp-includes/class-wp-hook.php(323): WP_Hook->apply_filters('', Array)
#2 /Applications/MAMP/htdocs/gomatodo/wp-includes/plugin.php(515): WP_Hook->do_action(Array)
#3 /Applications/MAMP/htdocs/gomatodo/wp-cron.php(117): do_action_ref_array('watson_save_to_...', Array)
#4 {main}
  thrown

2017-10-24T22:59:21+00:00 CRITICAL Uncaught Error: Unsupported operand types in /Applications/MAMP/htdocs/gomatodo/wp-content/plugins/conversation-watson/includes/api.php:141
Stack trace:
#0 /Applications/MAMP/htdocs/gomatodo/wp-includes/class-wp-hook.php(298): WatsonConv\API::record_api_usage()
#1 /Applications/MAMP/htdocs/gomatodo/wp-includes/class-wp-hook.php(323): WP_Hook->apply_filters('', Array)
#2 /Applications/MAMP/htdocs/gomatodo/wp-includes/plugin.php(515): WP_Hook->do_action(Array)
#3 /Applications/MAMP/htdocs/gomatodo/wp-cron.php(117): do_action_ref_array('watson_save_to_...', Array)
#4 {main}
  thrown

2017-10-25T00:00:08+00:00 CRITICAL Uncaught Error: Unsupported operand types in /Applications/MAMP/htdocs/gomatodo/wp-content/plugins/conversation-watson/includes/api.php:141
Stack trace:
#0 /Applications/MAMP/htdocs/gomatodo/wp-includes/class-wp-hook.php(298): WatsonConv\API::record_api_usage()
#1 /Applications/MAMP/htdocs/gomatodo/wp-includes/class-wp-hook.php(323): WP_Hook->apply_filters('', Array)
#2 /Applications/MAMP/htdocs/gomatodo/wp-includes/plugin.php(515): WP_Hook->do_action(Array)
#3 /Applications/MAMP/htdocs/gomatodo/wp-cron.php(117): do_action_ref_array('watson_save_to_...', Array)
#4 {main}
  thrown

2017-10-25T00:01:33+00:00 CRITICAL Uncaught Error: Unsupported operand types in /Applications/MAMP/htdocs/gomatodo/wp-content/plugins/conversation-watson/includes/api.php:141
Stack trace:
#0 /Applications/MAMP/htdocs/gomatodo/wp-includes/class-wp-hook.php(298): WatsonConv\API::record_api_usage()
#1 /Applications/MAMP/htdocs/gomatodo/wp-includes/class-wp-hook.php(323): WP_Hook->apply_filters('', Array)
#2 /Applications/MAMP/htdocs/gomatodo/wp-includes/plugin.php(515): WP_Hook->do_action(Array)
#3 /Applications/MAMP/htdocs/gomatodo/wp-cron.php(117): do_action_ref_array('watson_save_to_...', Array)
#4 {main}
  thrown

2017-10-25T00:03:34+00:00 CRITICAL Uncaught Error: Unsupported operand types in /Applications/MAMP/htdocs/gomatodo/wp-content/plugins/conversation-watson/includes/api.php:141
Stack trace:
#0 /Applications/MAMP/htdocs/gomatodo/wp-includes/class-wp-hook.php(298): WatsonConv\API::record_api_usage()
#1 /Applications/MAMP/htdocs/gomatodo/wp-includes/class-wp-hook.php(323): WP_Hook->apply_filters('', Array)
#2 /Applications/MAMP/htdocs/gomatodo/wp-includes/plugin.php(515): WP_Hook->do_action(Array)
#3 /Applications/MAMP/htdocs/gomatodo/wp-cron.php(117): do_action_ref_array('watson_save_to_...', Array)
#4 {main}
  thrown

2017-10-25T00:05:37+00:00 CRITICAL Uncaught Error: Unsupported operand types in /Applications/MAMP/htdocs/gomatodo/wp-content/plugins/conversation-watson/includes/api.php:141
Stack trace:
#0 /Applications/MAMP/htdocs/gomatodo/wp-includes/class-wp-hook.php(298): WatsonConv\API::record_api_usage()
#1 /Applications/MAMP/htdocs/gomatodo/wp-includes/class-wp-hook.php(323): WP_Hook->apply_filters('', Array)
#2 /Applications/MAMP/htdocs/gomatodo/wp-includes/plugin.php(515): WP_Hook->do_action(Array)
#3 /Applications/MAMP/htdocs/gomatodo/wp-cron.php(117): do_action_ref_array('watson_save_to_...', Array)
#4 {main}
  thrown

2017-10-25T00:07:39+00:00 CRITICAL Uncaught Error: Unsupported operand types in /Applications/MAMP/htdocs/gomatodo/wp-content/plugins/conversation-watson/includes/api.php:141
Stack trace:
#0 /Applications/MAMP/htdocs/gomatodo/wp-includes/class-wp-hook.php(298): WatsonConv\API::record_api_usage()
#1 /Applications/MAMP/htdocs/gomatodo/wp-includes/class-wp-hook.php(323): WP_Hook->apply_filters('', Array)
#2 /Applications/MAMP/htdocs/gomatodo/wp-includes/plugin.php(515): WP_Hook->do_action(Array)
#3 /Applications/MAMP/htdocs/gomatodo/wp-cron.php(117): do_action_ref_array('watson_save_to_...', Array)
#4 {main}
  thrown

2017-10-25T00:08:44+00:00 CRITICAL Uncaught Error: Unsupported operand types in /Applications/MAMP/htdocs/gomatodo/wp-content/plugins/conversation-watson/includes/api.php:141
Stack trace:
#0 /Applications/MAMP/htdocs/gomatodo/wp-includes/class-wp-hook.php(298): WatsonConv\API::record_api_usage()
#1 /Applications/MAMP/htdocs/gomatodo/wp-includes/class-wp-hook.php(323): WP_Hook->apply_filters('', Array)
#2 /Applications/MAMP/htdocs/gomatodo/wp-includes/plugin.php(515): WP_Hook->do_action(Array)
#3 /Applications/MAMP/htdocs/gomatodo/wp-cron.php(117): do_action_ref_array('watson_save_to_...', Array)
#4 {main}
  thrown

2017-10-25T00:09:50+00:00 CRITICAL Uncaught Error: Unsupported operand types in /Applications/MAMP/htdocs/gomatodo/wp-content/plugins/conversation-watson/includes/api.php:141
Stack trace:
#0 /Applications/MAMP/htdocs/gomatodo/wp-includes/class-wp-hook.php(298): WatsonConv\API::record_api_usage()
#1 /Applications/MAMP/htdocs/gomatodo/wp-includes/class-wp-hook.php(323): WP_Hook->apply_filters('', Array)
#2 /Applications/MAMP/htdocs/gomatodo/wp-includes/plugin.php(515): WP_Hook->do_action(Array)
#3 /Applications/MAMP/htdocs/gomatodo/wp-cron.php(117): do_action_ref_array('watson_save_to_...', Array)
#4 {main}
  thrown

2017-10-25T00:10:54+00:00 CRITICAL Uncaught Error: Unsupported operand types in /Applications/MAMP/htdocs/gomatodo/wp-content/plugins/conversation-watson/includes/api.php:141
Stack trace:
#0 /Applications/MAMP/htdocs/gomatodo/wp-includes/class-wp-hook.php(298): WatsonConv\API::record_api_usage()
#1 /Applications/MAMP/htdocs/gomatodo/wp-includes/class-wp-hook.php(323): WP_Hook->apply_filters('', Array)
#2 /Applications/MAMP/htdocs/gomatodo/wp-includes/plugin.php(515): WP_Hook->do_action(Array)
#3 /Applications/MAMP/htdocs/gomatodo/wp-cron.php(117): do_action_ref_array('watson_save_to_...', Array)
#4 {main}
  thrown

2017-10-25T00:12:09+00:00 CRITICAL Uncaught Error: Unsupported operand types in /Applications/MAMP/htdocs/gomatodo/wp-content/plugins/conversation-watson/includes/api.php:141
Stack trace:
#0 /Applications/MAMP/htdocs/gomatodo/wp-includes/class-wp-hook.php(298): WatsonConv\API::record_api_usage()
#1 /Applications/MAMP/htdocs/gomatodo/wp-includes/class-wp-hook.php(323): WP_Hook->apply_filters('', Array)
#2 /Applications/MAMP/htdocs/gomatodo/wp-includes/plugin.php(515): WP_Hook->do_action(Array)
#3 /Applications/MAMP/htdocs/gomatodo/wp-cron.php(117): do_action_ref_array('watson_save_to_...', Array)
#4 {main}
  thrown

2017-10-25T00:13:12+00:00 CRITICAL Uncaught Error: Unsupported operand types in /Applications/MAMP/htdocs/gomatodo/wp-content/plugins/conversation-watson/includes/api.php:141
Stack trace:
#0 /Applications/MAMP/htdocs/gomatodo/wp-includes/class-wp-hook.php(298): WatsonConv\API::record_api_usage()
#1 /Applications/MAMP/htdocs/gomatodo/wp-includes/class-wp-hook.php(323): WP_Hook->apply_filters('', Array)
#2 /Applications/MAMP/htdocs/gomatodo/wp-includes/plugin.php(515): WP_Hook->do_action(Array)
#3 /Applications/MAMP/htdocs/gomatodo/wp-cron.php(117): do_action_ref_array('watson_save_to_...', Array)
#4 {main}
  thrown

2017-10-25T00:14:11+00:00 CRITICAL Uncaught Error: Unsupported operand types in /Applications/MAMP/htdocs/gomatodo/wp-content/plugins/conversation-watson/includes/api.php:141
Stack trace:
#0 /Applications/MAMP/htdocs/gomatodo/wp-includes/class-wp-hook.php(298): WatsonConv\API::record_api_usage()
#1 /Applications/MAMP/htdocs/gomatodo/wp-includes/class-wp-hook.php(323): WP_Hook->apply_filters('', Array)
#2 /Applications/MAMP/htdocs/gomatodo/wp-includes/plugin.php(515): WP_Hook->do_action(Array)
#3 /Applications/MAMP/htdocs/gomatodo/wp-cron.php(117): do_action_ref_array('watson_save_to_...', Array)
#4 {main}
  thrown

2017-10-25T00:15:12+00:00 CRITICAL Uncaught Error: Unsupported operand types in /Applications/MAMP/htdocs/gomatodo/wp-content/plugins/conversation-watson/includes/api.php:141
Stack trace:
#0 /Applications/MAMP/htdocs/gomatodo/wp-includes/class-wp-hook.php(298): WatsonConv\API::record_api_usage()
#1 /Applications/MAMP/htdocs/gomatodo/wp-includes/class-wp-hook.php(323): WP_Hook->apply_filters('', Array)
#2 /Applications/MAMP/htdocs/gomatodo/wp-includes/plugin.php(515): WP_Hook->do_action(Array)
#3 /Applications/MAMP/htdocs/gomatodo/wp-cron.php(117): do_action_ref_array('watson_save_to_...', Array)
#4 {main}
  thrown

2017-10-25T00:16:15+00:00 CRITICAL Uncaught Error: Unsupported operand types in /Applications/MAMP/htdocs/gomatodo/wp-content/plugins/conversation-watson/includes/api.php:141
Stack trace:
#0 /Applications/MAMP/htdocs/gomatodo/wp-includes/class-wp-hook.php(298): WatsonConv\API::record_api_usage()
#1 /Applications/MAMP/htdocs/gomatodo/wp-includes/class-wp-hook.php(323): WP_Hook->apply_filters('', Array)
#2 /Applications/MAMP/htdocs/gomatodo/wp-includes/plugin.php(515): WP_Hook->do_action(Array)
#3 /Applications/MAMP/htdocs/gomatodo/wp-cron.php(117): do_action_ref_array('watson_save_to_...', Array)
#4 {main}
  thrown

2017-10-25T00:18:05+00:00 CRITICAL Uncaught Error: Unsupported operand types in /Applications/MAMP/htdocs/gomatodo/wp-content/plugins/conversation-watson/includes/api.php:141
Stack trace:
#0 /Applications/MAMP/htdocs/gomatodo/wp-includes/class-wp-hook.php(298): WatsonConv\API::record_api_usage()
#1 /Applications/MAMP/htdocs/gomatodo/wp-includes/class-wp-hook.php(323): WP_Hook->apply_filters('', Array)
#2 /Applications/MAMP/htdocs/gomatodo/wp-includes/plugin.php(515): WP_Hook->do_action(Array)
#3 /Applications/MAMP/htdocs/gomatodo/wp-cron.php(117): do_action_ref_array('watson_save_to_...', Array)
#4 {main}
  thrown

2017-10-25T00:19:26+00:00 CRITICAL Uncaught Error: Unsupported operand types in /Applications/MAMP/htdocs/gomatodo/wp-content/plugins/conversation-watson/includes/api.php:141
Stack trace:
#0 /Applications/MAMP/htdocs/gomatodo/wp-includes/class-wp-hook.php(298): WatsonConv\API::record_api_usage()
#1 /Applications/MAMP/htdocs/gomatodo/wp-includes/class-wp-hook.php(323): WP_Hook->apply_filters('', Array)
#2 /Applications/MAMP/htdocs/gomatodo/wp-includes/plugin.php(515): WP_Hook->do_action(Array)
#3 /Applications/MAMP/htdocs/gomatodo/wp-cron.php(117): do_action_ref_array('watson_save_to_...', Array)
#4 {main}
  thrown

2017-10-25T00:21:21+00:00 CRITICAL Uncaught Error: Unsupported operand types in /Applications/MAMP/htdocs/gomatodo/wp-content/plugins/conversation-watson/includes/api.php:141
Stack trace:
#0 /Applications/MAMP/htdocs/gomatodo/wp-includes/class-wp-hook.php(298): WatsonConv\API::record_api_usage()
#1 /Applications/MAMP/htdocs/gomatodo/wp-includes/class-wp-hook.php(323): WP_Hook->apply_filters('', Array)
#2 /Applications/MAMP/htdocs/gomatodo/wp-includes/plugin.php(515): WP_Hook->do_action(Array)
#3 /Applications/MAMP/htdocs/gomatodo/wp-cron.php(117): do_action_ref_array('watson_save_to_...', Array)
#4 {main}
  thrown

2017-10-25T00:23:05+00:00 CRITICAL Uncaught Error: Unsupported operand types in /Applications/MAMP/htdocs/gomatodo/wp-content/plugins/conversation-watson/includes/api.php:141
Stack trace:
#0 /Applications/MAMP/htdocs/gomatodo/wp-includes/class-wp-hook.php(298): WatsonConv\API::record_api_usage()
#1 /Applications/MAMP/htdocs/gomatodo/wp-includes/class-wp-hook.php(323): WP_Hook->apply_filters('', Array)
#2 /Applications/MAMP/htdocs/gomatodo/wp-includes/plugin.php(515): WP_Hook->do_action(Array)
#3 /Applications/MAMP/htdocs/gomatodo/wp-cron.php(117): do_action_ref_array('watson_save_to_...', Array)
#4 {main}
  thrown

2017-10-25T00:24:05+00:00 CRITICAL Uncaught Error: Unsupported operand types in /Applications/MAMP/htdocs/gomatodo/wp-content/plugins/conversation-watson/includes/api.php:141
Stack trace:
#0 /Applications/MAMP/htdocs/gomatodo/wp-includes/class-wp-hook.php(298): WatsonConv\API::record_api_usage()
#1 /Applications/MAMP/htdocs/gomatodo/wp-includes/class-wp-hook.php(323): WP_Hook->apply_filters('', Array)
#2 /Applications/MAMP/htdocs/gomatodo/wp-includes/plugin.php(515): WP_Hook->do_action(Array)
#3 /Applications/MAMP/htdocs/gomatodo/wp-cron.php(117): do_action_ref_array('watson_save_to_...', Array)
#4 {main}
  thrown

2017-10-25T00:25:13+00:00 CRITICAL Uncaught Error: Unsupported operand types in /Applications/MAMP/htdocs/gomatodo/wp-content/plugins/conversation-watson/includes/api.php:141
Stack trace:
#0 /Applications/MAMP/htdocs/gomatodo/wp-includes/class-wp-hook.php(298): WatsonConv\API::record_api_usage()
#1 /Applications/MAMP/htdocs/gomatodo/wp-includes/class-wp-hook.php(323): WP_Hook->apply_filters('', Array)
#2 /Applications/MAMP/htdocs/gomatodo/wp-includes/plugin.php(515): WP_Hook->do_action(Array)
#3 /Applications/MAMP/htdocs/gomatodo/wp-cron.php(117): do_action_ref_array('watson_save_to_...', Array)
#4 {main}
  thrown

2017-10-25T00:26:17+00:00 CRITICAL Uncaught Error: Unsupported operand types in /Applications/MAMP/htdocs/gomatodo/wp-content/plugins/conversation-watson/includes/api.php:141
Stack trace:
#0 /Applications/MAMP/htdocs/gomatodo/wp-includes/class-wp-hook.php(298): WatsonConv\API::record_api_usage()
#1 /Applications/MAMP/htdocs/gomatodo/wp-includes/class-wp-hook.php(323): WP_Hook->apply_filters('', Array)
#2 /Applications/MAMP/htdocs/gomatodo/wp-includes/plugin.php(515): WP_Hook->do_action(Array)
#3 /Applications/MAMP/htdocs/gomatodo/wp-cron.php(117): do_action_ref_array('watson_save_to_...', Array)
#4 {main}
  thrown

2017-10-25T00:27:25+00:00 CRITICAL Uncaught Error: Unsupported operand types in /Applications/MAMP/htdocs/gomatodo/wp-content/plugins/conversation-watson/includes/api.php:141
Stack trace:
#0 /Applications/MAMP/htdocs/gomatodo/wp-includes/class-wp-hook.php(298): WatsonConv\API::record_api_usage()
#1 /Applications/MAMP/htdocs/gomatodo/wp-includes/class-wp-hook.php(323): WP_Hook->apply_filters('', Array)
#2 /Applications/MAMP/htdocs/gomatodo/wp-includes/plugin.php(515): WP_Hook->do_action(Array)
#3 /Applications/MAMP/htdocs/gomatodo/wp-cron.php(117): do_action_ref_array('watson_save_to_...', Array)
#4 {main}
  thrown

2017-10-25T00:39:24+00:00 CRITICAL Uncaught Error: Unsupported operand types in /Applications/MAMP/htdocs/gomatodo/wp-content/plugins/conversation-watson/includes/api.php:141
Stack trace:
#0 /Applications/MAMP/htdocs/gomatodo/wp-includes/class-wp-hook.php(298): WatsonConv\API::record_api_usage()
#1 /Applications/MAMP/htdocs/gomatodo/wp-includes/class-wp-hook.php(323): WP_Hook->apply_filters('', Array)
#2 /Applications/MAMP/htdocs/gomatodo/wp-includes/plugin.php(515): WP_Hook->do_action(Array)
#3 /Applications/MAMP/htdocs/gomatodo/wp-cron.php(117): do_action_ref_array('watson_save_to_...', Array)
#4 {main}
  thrown

2017-10-25T00:40:29+00:00 CRITICAL Uncaught Error: Unsupported operand types in /Applications/MAMP/htdocs/gomatodo/wp-content/plugins/conversation-watson/includes/api.php:141
Stack trace:
#0 /Applications/MAMP/htdocs/gomatodo/wp-includes/class-wp-hook.php(298): WatsonConv\API::record_api_usage()
#1 /Applications/MAMP/htdocs/gomatodo/wp-includes/class-wp-hook.php(323): WP_Hook->apply_filters('', Array)
#2 /Applications/MAMP/htdocs/gomatodo/wp-includes/plugin.php(515): WP_Hook->do_action(Array)
#3 /Applications/MAMP/htdocs/gomatodo/wp-cron.php(117): do_action_ref_array('watson_save_to_...', Array)
#4 {main}
  thrown

2017-10-25T00:41:30+00:00 CRITICAL Uncaught Error: Unsupported operand types in /Applications/MAMP/htdocs/gomatodo/wp-content/plugins/conversation-watson/includes/api.php:141
Stack trace:
#0 /Applications/MAMP/htdocs/gomatodo/wp-includes/class-wp-hook.php(298): WatsonConv\API::record_api_usage()
#1 /Applications/MAMP/htdocs/gomatodo/wp-includes/class-wp-hook.php(323): WP_Hook->apply_filters('', Array)
#2 /Applications/MAMP/htdocs/gomatodo/wp-includes/plugin.php(515): WP_Hook->do_action(Array)
#3 /Applications/MAMP/htdocs/gomatodo/wp-cron.php(117): do_action_ref_array('watson_save_to_...', Array)
#4 {main}
  thrown

2017-10-25T00:42:32+00:00 CRITICAL Uncaught Error: Unsupported operand types in /Applications/MAMP/htdocs/gomatodo/wp-content/plugins/conversation-watson/includes/api.php:141
Stack trace:
#0 /Applications/MAMP/htdocs/gomatodo/wp-includes/class-wp-hook.php(298): WatsonConv\API::record_api_usage()
#1 /Applications/MAMP/htdocs/gomatodo/wp-includes/class-wp-hook.php(323): WP_Hook->apply_filters('', Array)
#2 /Applications/MAMP/htdocs/gomatodo/wp-includes/plugin.php(515): WP_Hook->do_action(Array)
#3 /Applications/MAMP/htdocs/gomatodo/wp-cron.php(117): do_action_ref_array('watson_save_to_...', Array)
#4 {main}
  thrown

2017-10-25T00:43:44+00:00 CRITICAL Uncaught Error: Unsupported operand types in /Applications/MAMP/htdocs/gomatodo/wp-content/plugins/conversation-watson/includes/api.php:141
Stack trace:
#0 /Applications/MAMP/htdocs/gomatodo/wp-includes/class-wp-hook.php(298): WatsonConv\API::record_api_usage()
#1 /Applications/MAMP/htdocs/gomatodo/wp-includes/class-wp-hook.php(323): WP_Hook->apply_filters('', Array)
#2 /Applications/MAMP/htdocs/gomatodo/wp-includes/plugin.php(515): WP_Hook->do_action(Array)
#3 /Applications/MAMP/htdocs/gomatodo/wp-cron.php(117): do_action_ref_array('watson_save_to_...', Array)
#4 {main}
  thrown

2017-10-25T00:44:50+00:00 CRITICAL Uncaught Error: Unsupported operand types in /Applications/MAMP/htdocs/gomatodo/wp-content/plugins/conversation-watson/includes/api.php:141
Stack trace:
#0 /Applications/MAMP/htdocs/gomatodo/wp-includes/class-wp-hook.php(298): WatsonConv\API::record_api_usage()
#1 /Applications/MAMP/htdocs/gomatodo/wp-includes/class-wp-hook.php(323): WP_Hook->apply_filters('', Array)
#2 /Applications/MAMP/htdocs/gomatodo/wp-includes/plugin.php(515): WP_Hook->do_action(Array)
#3 /Applications/MAMP/htdocs/gomatodo/wp-cron.php(117): do_action_ref_array('watson_save_to_...', Array)
#4 {main}
  thrown

2017-10-25T00:46:03+00:00 CRITICAL Uncaught Error: Unsupported operand types in /Applications/MAMP/htdocs/gomatodo/wp-content/plugins/conversation-watson/includes/api.php:141
Stack trace:
#0 /Applications/MAMP/htdocs/gomatodo/wp-includes/class-wp-hook.php(298): WatsonConv\API::record_api_usage()
#1 /Applications/MAMP/htdocs/gomatodo/wp-includes/class-wp-hook.php(323): WP_Hook->apply_filters('', Array)
#2 /Applications/MAMP/htdocs/gomatodo/wp-includes/plugin.php(515): WP_Hook->do_action(Array)
#3 /Applications/MAMP/htdocs/gomatodo/wp-cron.php(117): do_action_ref_array('watson_save_to_...', Array)
#4 {main}
  thrown

2017-10-25T00:47:17+00:00 CRITICAL Uncaught Error: Unsupported operand types in /Applications/MAMP/htdocs/gomatodo/wp-content/plugins/conversation-watson/includes/api.php:141
Stack trace:
#0 /Applications/MAMP/htdocs/gomatodo/wp-includes/class-wp-hook.php(298): WatsonConv\API::record_api_usage()
#1 /Applications/MAMP/htdocs/gomatodo/wp-includes/class-wp-hook.php(323): WP_Hook->apply_filters('', Array)
#2 /Applications/MAMP/htdocs/gomatodo/wp-includes/plugin.php(515): WP_Hook->do_action(Array)
#3 /Applications/MAMP/htdocs/gomatodo/wp-cron.php(117): do_action_ref_array('watson_save_to_...', Array)
#4 {main}
  thrown

2017-10-25T00:48:42+00:00 CRITICAL Uncaught Error: Unsupported operand types in /Applications/MAMP/htdocs/gomatodo/wp-content/plugins/conversation-watson/includes/api.php:141
Stack trace:
#0 /Applications/MAMP/htdocs/gomatodo/wp-includes/class-wp-hook.php(298): WatsonConv\API::record_api_usage()
#1 /Applications/MAMP/htdocs/gomatodo/wp-includes/class-wp-hook.php(323): WP_Hook->apply_filters('', Array)
#2 /Applications/MAMP/htdocs/gomatodo/wp-includes/plugin.php(515): WP_Hook->do_action(Array)
#3 /Applications/MAMP/htdocs/gomatodo/wp-cron.php(117): do_action_ref_array('watson_save_to_...', Array)
#4 {main}
  thrown

2017-10-25T00:49:49+00:00 CRITICAL Uncaught Error: Unsupported operand types in /Applications/MAMP/htdocs/gomatodo/wp-content/plugins/conversation-watson/includes/api.php:141
Stack trace:
#0 /Applications/MAMP/htdocs/gomatodo/wp-includes/class-wp-hook.php(298): WatsonConv\API::record_api_usage()
#1 /Applications/MAMP/htdocs/gomatodo/wp-includes/class-wp-hook.php(323): WP_Hook->apply_filters('', Array)
#2 /Applications/MAMP/htdocs/gomatodo/wp-includes/plugin.php(515): WP_Hook->do_action(Array)
#3 /Applications/MAMP/htdocs/gomatodo/wp-cron.php(117): do_action_ref_array('watson_save_to_...', Array)
#4 {main}
  thrown

2017-10-25T00:51:16+00:00 CRITICAL Uncaught Error: Unsupported operand types in /Applications/MAMP/htdocs/gomatodo/wp-content/plugins/conversation-watson/includes/api.php:141
Stack trace:
#0 /Applications/MAMP/htdocs/gomatodo/wp-includes/class-wp-hook.php(298): WatsonConv\API::record_api_usage()
#1 /Applications/MAMP/htdocs/gomatodo/wp-includes/class-wp-hook.php(323): WP_Hook->apply_filters('', Array)
#2 /Applications/MAMP/htdocs/gomatodo/wp-includes/plugin.php(515): WP_Hook->do_action(Array)
#3 /Applications/MAMP/htdocs/gomatodo/wp-cron.php(117): do_action_ref_array('watson_save_to_...', Array)
#4 {main}
  thrown

2017-10-25T00:53:02+00:00 CRITICAL Uncaught Error: Unsupported operand types in /Applications/MAMP/htdocs/gomatodo/wp-content/plugins/conversation-watson/includes/api.php:141
Stack trace:
#0 /Applications/MAMP/htdocs/gomatodo/wp-includes/class-wp-hook.php(298): WatsonConv\API::record_api_usage()
#1 /Applications/MAMP/htdocs/gomatodo/wp-includes/class-wp-hook.php(323): WP_Hook->apply_filters('', Array)
#2 /Applications/MAMP/htdocs/gomatodo/wp-includes/plugin.php(515): WP_Hook->do_action(Array)
#3 /Applications/MAMP/htdocs/gomatodo/wp-cron.php(117): do_action_ref_array('watson_save_to_...', Array)
#4 {main}
  thrown

2017-10-25T00:54:24+00:00 CRITICAL Uncaught Error: Unsupported operand types in /Applications/MAMP/htdocs/gomatodo/wp-content/plugins/conversation-watson/includes/api.php:141
Stack trace:
#0 /Applications/MAMP/htdocs/gomatodo/wp-includes/class-wp-hook.php(298): WatsonConv\API::record_api_usage()
#1 /Applications/MAMP/htdocs/gomatodo/wp-includes/class-wp-hook.php(323): WP_Hook->apply_filters('', Array)
#2 /Applications/MAMP/htdocs/gomatodo/wp-includes/plugin.php(515): WP_Hook->do_action(Array)
#3 /Applications/MAMP/htdocs/gomatodo/wp-cron.php(117): do_action_ref_array('watson_save_to_...', Array)
#4 {main}
  thrown

2017-10-25T00:56:28+00:00 CRITICAL Uncaught Error: Unsupported operand types in /Applications/MAMP/htdocs/gomatodo/wp-content/plugins/conversation-watson/includes/api.php:141
Stack trace:
#0 /Applications/MAMP/htdocs/gomatodo/wp-includes/class-wp-hook.php(298): WatsonConv\API::record_api_usage()
#1 /Applications/MAMP/htdocs/gomatodo/wp-includes/class-wp-hook.php(323): WP_Hook->apply_filters('', Array)
#2 /Applications/MAMP/htdocs/gomatodo/wp-includes/plugin.php(515): WP_Hook->do_action(Array)
#3 /Applications/MAMP/htdocs/gomatodo/wp-cron.php(117): do_action_ref_array('watson_save_to_...', Array)
#4 {main}
  thrown

2017-10-25T00:58:35+00:00 CRITICAL Uncaught Error: Unsupported operand types in /Applications/MAMP/htdocs/gomatodo/wp-content/plugins/conversation-watson/includes/api.php:141
Stack trace:
#0 /Applications/MAMP/htdocs/gomatodo/wp-includes/class-wp-hook.php(298): WatsonConv\API::record_api_usage()
#1 /Applications/MAMP/htdocs/gomatodo/wp-includes/class-wp-hook.php(323): WP_Hook->apply_filters('', Array)
#2 /Applications/MAMP/htdocs/gomatodo/wp-includes/plugin.php(515): WP_Hook->do_action(Array)
#3 /Applications/MAMP/htdocs/gomatodo/wp-cron.php(117): do_action_ref_array('watson_save_to_...', Array)
#4 {main}
  thrown

2017-10-25T01:00:49+00:00 CRITICAL Uncaught Error: Unsupported operand types in /Applications/MAMP/htdocs/gomatodo/wp-content/plugins/conversation-watson/includes/api.php:141
Stack trace:
#0 /Applications/MAMP/htdocs/gomatodo/wp-includes/class-wp-hook.php(298): WatsonConv\API::record_api_usage()
#1 /Applications/MAMP/htdocs/gomatodo/wp-includes/class-wp-hook.php(323): WP_Hook->apply_filters('', Array)
#2 /Applications/MAMP/htdocs/gomatodo/wp-includes/plugin.php(515): WP_Hook->do_action(Array)
#3 /Applications/MAMP/htdocs/gomatodo/wp-cron.php(117): do_action_ref_array('watson_save_to_...', Array)
#4 {main}
  thrown

2017-10-25T01:01:55+00:00 CRITICAL Uncaught Error: Unsupported operand types in /Applications/MAMP/htdocs/gomatodo/wp-content/plugins/conversation-watson/includes/api.php:141
Stack trace:
#0 /Applications/MAMP/htdocs/gomatodo/wp-includes/class-wp-hook.php(298): WatsonConv\API::record_api_usage()
#1 /Applications/MAMP/htdocs/gomatodo/wp-includes/class-wp-hook.php(323): WP_Hook->apply_filters('', Array)
#2 /Applications/MAMP/htdocs/gomatodo/wp-includes/plugin.php(515): WP_Hook->do_action(Array)
#3 /Applications/MAMP/htdocs/gomatodo/wp-cron.php(117): do_action_ref_array('watson_save_to_...', Array)
#4 {main}
  thrown

2017-10-25T01:03:16+00:00 CRITICAL Uncaught Error: Unsupported operand types in /Applications/MAMP/htdocs/gomatodo/wp-content/plugins/conversation-watson/includes/api.php:141
Stack trace:
#0 /Applications/MAMP/htdocs/gomatodo/wp-includes/class-wp-hook.php(298): WatsonConv\API::record_api_usage()
#1 /Applications/MAMP/htdocs/gomatodo/wp-includes/class-wp-hook.php(323): WP_Hook->apply_filters('', Array)
#2 /Applications/MAMP/htdocs/gomatodo/wp-includes/plugin.php(515): WP_Hook->do_action(Array)
#3 /Applications/MAMP/htdocs/gomatodo/wp-cron.php(117): do_action_ref_array('watson_save_to_...', Array)
#4 {main}
  thrown

2017-10-25T01:27:04+00:00 CRITICAL Uncaught Error: Unsupported operand types in /Applications/MAMP/htdocs/gomatodo/wp-content/plugins/conversation-watson/includes/api.php:141
Stack trace:
#0 /Applications/MAMP/htdocs/gomatodo/wp-includes/class-wp-hook.php(298): WatsonConv\API::record_api_usage()
#1 /Applications/MAMP/htdocs/gomatodo/wp-includes/class-wp-hook.php(323): WP_Hook->apply_filters('', Array)
#2 /Applications/MAMP/htdocs/gomatodo/wp-includes/plugin.php(515): WP_Hook->do_action(Array)
#3 /Applications/MAMP/htdocs/gomatodo/wp-cron.php(117): do_action_ref_array('watson_save_to_...', Array)
#4 {main}
  thrown

2017-10-25T01:29:08+00:00 CRITICAL Uncaught Error: Unsupported operand types in /Applications/MAMP/htdocs/gomatodo/wp-content/plugins/conversation-watson/includes/api.php:141
Stack trace:
#0 /Applications/MAMP/htdocs/gomatodo/wp-includes/class-wp-hook.php(298): WatsonConv\API::record_api_usage()
#1 /Applications/MAMP/htdocs/gomatodo/wp-includes/class-wp-hook.php(323): WP_Hook->apply_filters('', Array)
#2 /Applications/MAMP/htdocs/gomatodo/wp-includes/plugin.php(515): WP_Hook->do_action(Array)
#3 /Applications/MAMP/htdocs/gomatodo/wp-cron.php(117): do_action_ref_array('watson_save_to_...', Array)
#4 {main}
  thrown

2017-10-25T01:31:34+00:00 CRITICAL Uncaught Error: Unsupported operand types in /Applications/MAMP/htdocs/gomatodo/wp-content/plugins/conversation-watson/includes/api.php:141
Stack trace:
#0 /Applications/MAMP/htdocs/gomatodo/wp-includes/class-wp-hook.php(298): WatsonConv\API::record_api_usage()
#1 /Applications/MAMP/htdocs/gomatodo/wp-includes/class-wp-hook.php(323): WP_Hook->apply_filters('', Array)
#2 /Applications/MAMP/htdocs/gomatodo/wp-includes/plugin.php(515): WP_Hook->do_action(Array)
#3 /Applications/MAMP/htdocs/gomatodo/wp-cron.php(117): do_action_ref_array('watson_save_to_...', Array)
#4 {main}
  thrown

2017-10-25T01:32:41+00:00 CRITICAL Uncaught Error: Unsupported operand types in /Applications/MAMP/htdocs/gomatodo/wp-content/plugins/conversation-watson/includes/api.php:141
Stack trace:
#0 /Applications/MAMP/htdocs/gomatodo/wp-includes/class-wp-hook.php(298): WatsonConv\API::record_api_usage()
#1 /Applications/MAMP/htdocs/gomatodo/wp-includes/class-wp-hook.php(323): WP_Hook->apply_filters('', Array)
#2 /Applications/MAMP/htdocs/gomatodo/wp-includes/plugin.php(515): WP_Hook->do_action(Array)
#3 /Applications/MAMP/htdocs/gomatodo/wp-cron.php(117): do_action_ref_array('watson_save_to_...', Array)
#4 {main}
  thrown

2017-10-25T01:33:52+00:00 CRITICAL Uncaught Error: Unsupported operand types in /Applications/MAMP/htdocs/gomatodo/wp-content/plugins/conversation-watson/includes/api.php:141
Stack trace:
#0 /Applications/MAMP/htdocs/gomatodo/wp-includes/class-wp-hook.php(298): WatsonConv\API::record_api_usage()
#1 /Applications/MAMP/htdocs/gomatodo/wp-includes/class-wp-hook.php(323): WP_Hook->apply_filters('', Array)
#2 /Applications/MAMP/htdocs/gomatodo/wp-includes/plugin.php(515): WP_Hook->do_action(Array)
#3 /Applications/MAMP/htdocs/gomatodo/wp-cron.php(117): do_action_ref_array('watson_save_to_...', Array)
#4 {main}
  thrown

2017-10-25T01:35:27+00:00 CRITICAL Uncaught Error: Unsupported operand types in /Applications/MAMP/htdocs/gomatodo/wp-content/plugins/conversation-watson/includes/api.php:141
Stack trace:
#0 /Applications/MAMP/htdocs/gomatodo/wp-includes/class-wp-hook.php(298): WatsonConv\API::record_api_usage()
#1 /Applications/MAMP/htdocs/gomatodo/wp-includes/class-wp-hook.php(323): WP_Hook->apply_filters('', Array)
#2 /Applications/MAMP/htdocs/gomatodo/wp-includes/plugin.php(515): WP_Hook->do_action(Array)
#3 /Applications/MAMP/htdocs/gomatodo/wp-cron.php(117): do_action_ref_array('watson_save_to_...', Array)
#4 {main}
  thrown

2017-10-25T01:36:34+00:00 CRITICAL Uncaught Error: Unsupported operand types in /Applications/MAMP/htdocs/gomatodo/wp-content/plugins/conversation-watson/includes/api.php:141
Stack trace:
#0 /Applications/MAMP/htdocs/gomatodo/wp-includes/class-wp-hook.php(298): WatsonConv\API::record_api_usage()
#1 /Applications/MAMP/htdocs/gomatodo/wp-includes/class-wp-hook.php(323): WP_Hook->apply_filters('', Array)
#2 /Applications/MAMP/htdocs/gomatodo/wp-includes/plugin.php(515): WP_Hook->do_action(Array)
#3 /Applications/MAMP/htdocs/gomatodo/wp-cron.php(117): do_action_ref_array('watson_save_to_...', Array)
#4 {main}
  thrown

2017-10-25T01:38:19+00:00 CRITICAL Uncaught Error: Unsupported operand types in /Applications/MAMP/htdocs/gomatodo/wp-content/plugins/conversation-watson/includes/api.php:141
Stack trace:
#0 /Applications/MAMP/htdocs/gomatodo/wp-includes/class-wp-hook.php(298): WatsonConv\API::record_api_usage()
#1 /Applications/MAMP/htdocs/gomatodo/wp-includes/class-wp-hook.php(323): WP_Hook->apply_filters('', Array)
#2 /Applications/MAMP/htdocs/gomatodo/wp-includes/plugin.php(515): WP_Hook->do_action(Array)
#3 /Applications/MAMP/htdocs/gomatodo/wp-cron.php(117): do_action_ref_array('watson_save_to_...', Array)
#4 {main}
  thrown

2017-10-25T01:39:29+00:00 CRITICAL Uncaught Error: Unsupported operand types in /Applications/MAMP/htdocs/gomatodo/wp-content/plugins/conversation-watson/includes/api.php:141
Stack trace:
#0 /Applications/MAMP/htdocs/gomatodo/wp-includes/class-wp-hook.php(298): WatsonConv\API::record_api_usage()
#1 /Applications/MAMP/htdocs/gomatodo/wp-includes/class-wp-hook.php(323): WP_Hook->apply_filters('', Array)
#2 /Applications/MAMP/htdocs/gomatodo/wp-includes/plugin.php(515): WP_Hook->do_action(Array)
#3 /Applications/MAMP/htdocs/gomatodo/wp-cron.php(117): do_action_ref_array('watson_save_to_...', Array)
#4 {main}
  thrown

2017-10-25T01:41:22+00:00 CRITICAL Uncaught Error: Unsupported operand types in /Applications/MAMP/htdocs/gomatodo/wp-content/plugins/conversation-watson/includes/api.php:141
Stack trace:
#0 /Applications/MAMP/htdocs/gomatodo/wp-includes/class-wp-hook.php(298): WatsonConv\API::record_api_usage()
#1 /Applications/MAMP/htdocs/gomatodo/wp-includes/class-wp-hook.php(323): WP_Hook->apply_filters('', Array)
#2 /Applications/MAMP/htdocs/gomatodo/wp-includes/plugin.php(515): WP_Hook->do_action(Array)
#3 /Applications/MAMP/htdocs/gomatodo/wp-cron.php(117): do_action_ref_array('watson_save_to_...', Array)
#4 {main}
  thrown

2017-10-25T01:42:39+00:00 CRITICAL Uncaught Error: Unsupported operand types in /Applications/MAMP/htdocs/gomatodo/wp-content/plugins/conversation-watson/includes/api.php:141
Stack trace:
#0 /Applications/MAMP/htdocs/gomatodo/wp-includes/class-wp-hook.php(298): WatsonConv\API::record_api_usage()
#1 /Applications/MAMP/htdocs/gomatodo/wp-includes/class-wp-hook.php(323): WP_Hook->apply_filters('', Array)
#2 /Applications/MAMP/htdocs/gomatodo/wp-includes/plugin.php(515): WP_Hook->do_action(Array)
#3 /Applications/MAMP/htdocs/gomatodo/wp-cron.php(117): do_action_ref_array('watson_save_to_...', Array)
#4 {main}
  thrown

2017-10-25T01:45:48+00:00 CRITICAL Uncaught Error: Unsupported operand types in /Applications/MAMP/htdocs/gomatodo/wp-content/plugins/conversation-watson/includes/api.php:141
Stack trace:
#0 /Applications/MAMP/htdocs/gomatodo/wp-includes/class-wp-hook.php(298): WatsonConv\API::record_api_usage()
#1 /Applications/MAMP/htdocs/gomatodo/wp-includes/class-wp-hook.php(323): WP_Hook->apply_filters('', Array)
#2 /Applications/MAMP/htdocs/gomatodo/wp-includes/plugin.php(515): WP_Hook->do_action(Array)
#3 /Applications/MAMP/htdocs/gomatodo/wp-cron.php(117): do_action_ref_array('watson_save_to_...', Array)
#4 {main}
  thrown

2017-10-25T01:47:32+00:00 CRITICAL Uncaught Error: Unsupported operand types in /Applications/MAMP/htdocs/gomatodo/wp-content/plugins/conversation-watson/includes/api.php:141
Stack trace:
#0 /Applications/MAMP/htdocs/gomatodo/wp-includes/class-wp-hook.php(298): WatsonConv\API::record_api_usage()
#1 /Applications/MAMP/htdocs/gomatodo/wp-includes/class-wp-hook.php(323): WP_Hook->apply_filters('', Array)
#2 /Applications/MAMP/htdocs/gomatodo/wp-includes/plugin.php(515): WP_Hook->do_action(Array)
#3 /Applications/MAMP/htdocs/gomatodo/wp-cron.php(117): do_action_ref_array('watson_save_to_...', Array)
#4 {main}
  thrown

2017-10-25T01:48:39+00:00 CRITICAL Uncaught Error: Unsupported operand types in /Applications/MAMP/htdocs/gomatodo/wp-content/plugins/conversation-watson/includes/api.php:141
Stack trace:
#0 /Applications/MAMP/htdocs/gomatodo/wp-includes/class-wp-hook.php(298): WatsonConv\API::record_api_usage()
#1 /Applications/MAMP/htdocs/gomatodo/wp-includes/class-wp-hook.php(323): WP_Hook->apply_filters('', Array)
#2 /Applications/MAMP/htdocs/gomatodo/wp-includes/plugin.php(515): WP_Hook->do_action(Array)
#3 /Applications/MAMP/htdocs/gomatodo/wp-cron.php(117): do_action_ref_array('watson_save_to_...', Array)
#4 {main}
  thrown

2017-10-25T01:51:35+00:00 CRITICAL Uncaught Error: Unsupported operand types in /Applications/MAMP/htdocs/gomatodo/wp-content/plugins/conversation-watson/includes/api.php:141
Stack trace:
#0 /Applications/MAMP/htdocs/gomatodo/wp-includes/class-wp-hook.php(298): WatsonConv\API::record_api_usage()
#1 /Applications/MAMP/htdocs/gomatodo/wp-includes/class-wp-hook.php(323): WP_Hook->apply_filters('', Array)
#2 /Applications/MAMP/htdocs/gomatodo/wp-includes/plugin.php(515): WP_Hook->do_action(Array)
#3 /Applications/MAMP/htdocs/gomatodo/wp-cron.php(117): do_action_ref_array('watson_save_to_...', Array)
#4 {main}
  thrown

2017-10-25T01:53:32+00:00 CRITICAL Uncaught Error: Unsupported operand types in /Applications/MAMP/htdocs/gomatodo/wp-content/plugins/conversation-watson/includes/api.php:141
Stack trace:
#0 /Applications/MAMP/htdocs/gomatodo/wp-includes/class-wp-hook.php(298): WatsonConv\API::record_api_usage()
#1 /Applications/MAMP/htdocs/gomatodo/wp-includes/class-wp-hook.php(323): WP_Hook->apply_filters('', Array)
#2 /Applications/MAMP/htdocs/gomatodo/wp-includes/plugin.php(515): WP_Hook->do_action(Array)
#3 /Applications/MAMP/htdocs/gomatodo/wp-cron.php(117): do_action_ref_array('watson_save_to_...', Array)
#4 {main}
  thrown

2017-10-25T01:55:39+00:00 CRITICAL Uncaught Error: Unsupported operand types in /Applications/MAMP/htdocs/gomatodo/wp-content/plugins/conversation-watson/includes/api.php:141
Stack trace:
#0 /Applications/MAMP/htdocs/gomatodo/wp-includes/class-wp-hook.php(298): WatsonConv\API::record_api_usage()
#1 /Applications/MAMP/htdocs/gomatodo/wp-includes/class-wp-hook.php(323): WP_Hook->apply_filters('', Array)
#2 /Applications/MAMP/htdocs/gomatodo/wp-includes/plugin.php(515): WP_Hook->do_action(Array)
#3 /Applications/MAMP/htdocs/gomatodo/wp-cron.php(117): do_action_ref_array('watson_save_to_...', Array)
#4 {main}
  thrown

2017-10-25T01:56:39+00:00 CRITICAL Uncaught Error: Unsupported operand types in /Applications/MAMP/htdocs/gomatodo/wp-content/plugins/conversation-watson/includes/api.php:141
Stack trace:
#0 /Applications/MAMP/htdocs/gomatodo/wp-includes/class-wp-hook.php(298): WatsonConv\API::record_api_usage()
#1 /Applications/MAMP/htdocs/gomatodo/wp-includes/class-wp-hook.php(323): WP_Hook->apply_filters('', Array)
#2 /Applications/MAMP/htdocs/gomatodo/wp-includes/plugin.php(515): WP_Hook->do_action(Array)
#3 /Applications/MAMP/htdocs/gomatodo/wp-cron.php(117): do_action_ref_array('watson_save_to_...', Array)
#4 {main}
  thrown

2017-10-25T01:57:41+00:00 CRITICAL Uncaught Error: Unsupported operand types in /Applications/MAMP/htdocs/gomatodo/wp-content/plugins/conversation-watson/includes/api.php:141
Stack trace:
#0 /Applications/MAMP/htdocs/gomatodo/wp-includes/class-wp-hook.php(298): WatsonConv\API::record_api_usage()
#1 /Applications/MAMP/htdocs/gomatodo/wp-includes/class-wp-hook.php(323): WP_Hook->apply_filters('', Array)
#2 /Applications/MAMP/htdocs/gomatodo/wp-includes/plugin.php(515): WP_Hook->do_action(Array)
#3 /Applications/MAMP/htdocs/gomatodo/wp-cron.php(117): do_action_ref_array('watson_save_to_...', Array)
#4 {main}
  thrown

2017-10-25T01:58:49+00:00 CRITICAL Uncaught Error: Unsupported operand types in /Applications/MAMP/htdocs/gomatodo/wp-content/plugins/conversation-watson/includes/api.php:141
Stack trace:
#0 /Applications/MAMP/htdocs/gomatodo/wp-includes/class-wp-hook.php(298): WatsonConv\API::record_api_usage()
#1 /Applications/MAMP/htdocs/gomatodo/wp-includes/class-wp-hook.php(323): WP_Hook->apply_filters('', Array)
#2 /Applications/MAMP/htdocs/gomatodo/wp-includes/plugin.php(515): WP_Hook->do_action(Array)
#3 /Applications/MAMP/htdocs/gomatodo/wp-cron.php(117): do_action_ref_array('watson_save_to_...', Array)
#4 {main}
  thrown

2017-10-25T02:00:13+00:00 CRITICAL Uncaught Error: Unsupported operand types in /Applications/MAMP/htdocs/gomatodo/wp-content/plugins/conversation-watson/includes/api.php:141
Stack trace:
#0 /Applications/MAMP/htdocs/gomatodo/wp-includes/class-wp-hook.php(298): WatsonConv\API::record_api_usage()
#1 /Applications/MAMP/htdocs/gomatodo/wp-includes/class-wp-hook.php(323): WP_Hook->apply_filters('', Array)
#2 /Applications/MAMP/htdocs/gomatodo/wp-includes/plugin.php(515): WP_Hook->do_action(Array)
#3 /Applications/MAMP/htdocs/gomatodo/wp-cron.php(117): do_action_ref_array('watson_save_to_...', Array)
#4 {main}
  thrown

2017-10-25T02:01:31+00:00 CRITICAL Uncaught Error: Unsupported operand types in /Applications/MAMP/htdocs/gomatodo/wp-content/plugins/conversation-watson/includes/api.php:141
Stack trace:
#0 /Applications/MAMP/htdocs/gomatodo/wp-includes/class-wp-hook.php(298): WatsonConv\API::record_api_usage()
#1 /Applications/MAMP/htdocs/gomatodo/wp-includes/class-wp-hook.php(323): WP_Hook->apply_filters('', Array)
#2 /Applications/MAMP/htdocs/gomatodo/wp-includes/plugin.php(515): WP_Hook->do_action(Array)
#3 /Applications/MAMP/htdocs/gomatodo/wp-cron.php(117): do_action_ref_array('watson_save_to_...', Array)
#4 {main}
  thrown

2017-10-25T02:02:36+00:00 CRITICAL Uncaught Error: Unsupported operand types in /Applications/MAMP/htdocs/gomatodo/wp-content/plugins/conversation-watson/includes/api.php:141
Stack trace:
#0 /Applications/MAMP/htdocs/gomatodo/wp-includes/class-wp-hook.php(298): WatsonConv\API::record_api_usage()
#1 /Applications/MAMP/htdocs/gomatodo/wp-includes/class-wp-hook.php(323): WP_Hook->apply_filters('', Array)
#2 /Applications/MAMP/htdocs/gomatodo/wp-includes/plugin.php(515): WP_Hook->do_action(Array)
#3 /Applications/MAMP/htdocs/gomatodo/wp-cron.php(117): do_action_ref_array('watson_save_to_...', Array)
#4 {main}
  thrown

2017-10-25T02:04:07+00:00 CRITICAL Uncaught Error: Unsupported operand types in /Applications/MAMP/htdocs/gomatodo/wp-content/plugins/conversation-watson/includes/api.php:141
Stack trace:
#0 /Applications/MAMP/htdocs/gomatodo/wp-includes/class-wp-hook.php(298): WatsonConv\API::record_api_usage()
#1 /Applications/MAMP/htdocs/gomatodo/wp-includes/class-wp-hook.php(323): WP_Hook->apply_filters('', Array)
#2 /Applications/MAMP/htdocs/gomatodo/wp-includes/plugin.php(515): WP_Hook->do_action(Array)
#3 /Applications/MAMP/htdocs/gomatodo/wp-cron.php(117): do_action_ref_array('watson_save_to_...', Array)
#4 {main}
  thrown

2017-10-25T02:05:24+00:00 CRITICAL Uncaught Error: Unsupported operand types in /Applications/MAMP/htdocs/gomatodo/wp-content/plugins/conversation-watson/includes/api.php:141
Stack trace:
#0 /Applications/MAMP/htdocs/gomatodo/wp-includes/class-wp-hook.php(298): WatsonConv\API::record_api_usage()
#1 /Applications/MAMP/htdocs/gomatodo/wp-includes/class-wp-hook.php(323): WP_Hook->apply_filters('', Array)
#2 /Applications/MAMP/htdocs/gomatodo/wp-includes/plugin.php(515): WP_Hook->do_action(Array)
#3 /Applications/MAMP/htdocs/gomatodo/wp-cron.php(117): do_action_ref_array('watson_save_to_...', Array)
#4 {main}
  thrown

2017-10-25T02:06:39+00:00 CRITICAL Uncaught Error: Unsupported operand types in /Applications/MAMP/htdocs/gomatodo/wp-content/plugins/conversation-watson/includes/api.php:141
Stack trace:
#0 /Applications/MAMP/htdocs/gomatodo/wp-includes/class-wp-hook.php(298): WatsonConv\API::record_api_usage()
#1 /Applications/MAMP/htdocs/gomatodo/wp-includes/class-wp-hook.php(323): WP_Hook->apply_filters('', Array)
#2 /Applications/MAMP/htdocs/gomatodo/wp-includes/plugin.php(515): WP_Hook->do_action(Array)
#3 /Applications/MAMP/htdocs/gomatodo/wp-cron.php(117): do_action_ref_array('watson_save_to_...', Array)
#4 {main}
  thrown

2017-10-25T04:26:51+00:00 CRITICAL Uncaught Error: Unsupported operand types in /Applications/MAMP/htdocs/gomatodo/wp-content/plugins/conversation-watson/includes/api.php:141
Stack trace:
#0 /Applications/MAMP/htdocs/gomatodo/wp-includes/class-wp-hook.php(298): WatsonConv\API::record_api_usage()
#1 /Applications/MAMP/htdocs/gomatodo/wp-includes/class-wp-hook.php(323): WP_Hook->apply_filters('', Array)
#2 /Applications/MAMP/htdocs/gomatodo/wp-includes/plugin.php(515): WP_Hook->do_action(Array)
#3 /Applications/MAMP/htdocs/gomatodo/wp-cron.php(117): do_action_ref_array('watson_save_to_...', Array)
#4 {main}
  thrown

2017-10-25T04:28:27+00:00 CRITICAL Uncaught Error: Unsupported operand types in /Applications/MAMP/htdocs/gomatodo/wp-content/plugins/conversation-watson/includes/api.php:141
Stack trace:
#0 /Applications/MAMP/htdocs/gomatodo/wp-includes/class-wp-hook.php(298): WatsonConv\API::record_api_usage()
#1 /Applications/MAMP/htdocs/gomatodo/wp-includes/class-wp-hook.php(323): WP_Hook->apply_filters('', Array)
#2 /Applications/MAMP/htdocs/gomatodo/wp-includes/plugin.php(515): WP_Hook->do_action(Array)
#3 /Applications/MAMP/htdocs/gomatodo/wp-cron.php(117): do_action_ref_array('watson_save_to_...', Array)
#4 {main}
  thrown

2017-10-25T04:29:41+00:00 CRITICAL Uncaught Error: Unsupported operand types in /Applications/MAMP/htdocs/gomatodo/wp-content/plugins/conversation-watson/includes/api.php:141
Stack trace:
#0 /Applications/MAMP/htdocs/gomatodo/wp-includes/class-wp-hook.php(298): WatsonConv\API::record_api_usage()
#1 /Applications/MAMP/htdocs/gomatodo/wp-includes/class-wp-hook.php(323): WP_Hook->apply_filters('', Array)
#2 /Applications/MAMP/htdocs/gomatodo/wp-includes/plugin.php(515): WP_Hook->do_action(Array)
#3 /Applications/MAMP/htdocs/gomatodo/wp-cron.php(117): do_action_ref_array('watson_save_to_...', Array)
#4 {main}
  thrown

2017-10-25T04:31:14+00:00 CRITICAL Uncaught Error: Unsupported operand types in /Applications/MAMP/htdocs/gomatodo/wp-content/plugins/conversation-watson/includes/api.php:141
Stack trace:
#0 /Applications/MAMP/htdocs/gomatodo/wp-includes/class-wp-hook.php(298): WatsonConv\API::record_api_usage()
#1 /Applications/MAMP/htdocs/gomatodo/wp-includes/class-wp-hook.php(323): WP_Hook->apply_filters('', Array)
#2 /Applications/MAMP/htdocs/gomatodo/wp-includes/plugin.php(515): WP_Hook->do_action(Array)
#3 /Applications/MAMP/htdocs/gomatodo/wp-cron.php(117): do_action_ref_array('watson_save_to_...', Array)
#4 {main}
  thrown

2017-10-25T04:32:31+00:00 CRITICAL Uncaught Error: Unsupported operand types in /Applications/MAMP/htdocs/gomatodo/wp-content/plugins/conversation-watson/includes/api.php:141
Stack trace:
#0 /Applications/MAMP/htdocs/gomatodo/wp-includes/class-wp-hook.php(298): WatsonConv\API::record_api_usage()
#1 /Applications/MAMP/htdocs/gomatodo/wp-includes/class-wp-hook.php(323): WP_Hook->apply_filters('', Array)
#2 /Applications/MAMP/htdocs/gomatodo/wp-includes/plugin.php(515): WP_Hook->do_action(Array)
#3 /Applications/MAMP/htdocs/gomatodo/wp-cron.php(117): do_action_ref_array('watson_save_to_...', Array)
#4 {main}
  thrown

2017-10-25T04:33:40+00:00 CRITICAL Uncaught Error: Unsupported operand types in /Applications/MAMP/htdocs/gomatodo/wp-content/plugins/conversation-watson/includes/api.php:141
Stack trace:
#0 /Applications/MAMP/htdocs/gomatodo/wp-includes/class-wp-hook.php(298): WatsonConv\API::record_api_usage()
#1 /Applications/MAMP/htdocs/gomatodo/wp-includes/class-wp-hook.php(323): WP_Hook->apply_filters('', Array)
#2 /Applications/MAMP/htdocs/gomatodo/wp-includes/plugin.php(515): WP_Hook->do_action(Array)
#3 /Applications/MAMP/htdocs/gomatodo/wp-cron.php(117): do_action_ref_array('watson_save_to_...', Array)
#4 {main}
  thrown

2017-10-25T04:38:44+00:00 CRITICAL Uncaught Error: Unsupported operand types in /Applications/MAMP/htdocs/gomatodo/wp-content/plugins/conversation-watson/includes/api.php:141
Stack trace:
#0 /Applications/MAMP/htdocs/gomatodo/wp-includes/class-wp-hook.php(298): WatsonConv\API::record_api_usage()
#1 /Applications/MAMP/htdocs/gomatodo/wp-includes/class-wp-hook.php(323): WP_Hook->apply_filters('', Array)
#2 /Applications/MAMP/htdocs/gomatodo/wp-includes/plugin.php(515): WP_Hook->do_action(Array)
#3 /Applications/MAMP/htdocs/gomatodo/wp-cron.php(117): do_action_ref_array('watson_save_to_...', Array)
#4 {main}
  thrown

2017-10-25T04:40:30+00:00 CRITICAL Uncaught Error: Unsupported operand types in /Applications/MAMP/htdocs/gomatodo/wp-content/plugins/conversation-watson/includes/api.php:141
Stack trace:
#0 /Applications/MAMP/htdocs/gomatodo/wp-includes/class-wp-hook.php(298): WatsonConv\API::record_api_usage()
#1 /Applications/MAMP/htdocs/gomatodo/wp-includes/class-wp-hook.php(323): WP_Hook->apply_filters('', Array)
#2 /Applications/MAMP/htdocs/gomatodo/wp-includes/plugin.php(515): WP_Hook->do_action(Array)
#3 /Applications/MAMP/htdocs/gomatodo/wp-cron.php(117): do_action_ref_array('watson_save_to_...', Array)
#4 {main}
  thrown

2017-10-25T04:42:15+00:00 CRITICAL Uncaught Error: Unsupported operand types in /Applications/MAMP/htdocs/gomatodo/wp-content/plugins/conversation-watson/includes/api.php:141
Stack trace:
#0 /Applications/MAMP/htdocs/gomatodo/wp-includes/class-wp-hook.php(298): WatsonConv\API::record_api_usage()
#1 /Applications/MAMP/htdocs/gomatodo/wp-includes/class-wp-hook.php(323): WP_Hook->apply_filters('', Array)
#2 /Applications/MAMP/htdocs/gomatodo/wp-includes/plugin.php(515): WP_Hook->do_action(Array)
#3 /Applications/MAMP/htdocs/gomatodo/wp-cron.php(117): do_action_ref_array('watson_save_to_...', Array)
#4 {main}
  thrown

2017-10-25T04:43:47+00:00 CRITICAL Uncaught Error: Unsupported operand types in /Applications/MAMP/htdocs/gomatodo/wp-content/plugins/conversation-watson/includes/api.php:141
Stack trace:
#0 /Applications/MAMP/htdocs/gomatodo/wp-includes/class-wp-hook.php(298): WatsonConv\API::record_api_usage()
#1 /Applications/MAMP/htdocs/gomatodo/wp-includes/class-wp-hook.php(323): WP_Hook->apply_filters('', Array)
#2 /Applications/MAMP/htdocs/gomatodo/wp-includes/plugin.php(515): WP_Hook->do_action(Array)
#3 /Applications/MAMP/htdocs/gomatodo/wp-cron.php(117): do_action_ref_array('watson_save_to_...', Array)
#4 {main}
  thrown

2017-10-25T04:44:50+00:00 CRITICAL Uncaught Error: Unsupported operand types in /Applications/MAMP/htdocs/gomatodo/wp-content/plugins/conversation-watson/includes/api.php:141
Stack trace:
#0 /Applications/MAMP/htdocs/gomatodo/wp-includes/class-wp-hook.php(298): WatsonConv\API::record_api_usage()
#1 /Applications/MAMP/htdocs/gomatodo/wp-includes/class-wp-hook.php(323): WP_Hook->apply_filters('', Array)
#2 /Applications/MAMP/htdocs/gomatodo/wp-includes/plugin.php(515): WP_Hook->do_action(Array)
#3 /Applications/MAMP/htdocs/gomatodo/wp-cron.php(117): do_action_ref_array('watson_save_to_...', Array)
#4 {main}
  thrown

2017-10-25T04:46:25+00:00 CRITICAL Uncaught Error: Unsupported operand types in /Applications/MAMP/htdocs/gomatodo/wp-content/plugins/conversation-watson/includes/api.php:141
Stack trace:
#0 /Applications/MAMP/htdocs/gomatodo/wp-includes/class-wp-hook.php(298): WatsonConv\API::record_api_usage()
#1 /Applications/MAMP/htdocs/gomatodo/wp-includes/class-wp-hook.php(323): WP_Hook->apply_filters('', Array)
#2 /Applications/MAMP/htdocs/gomatodo/wp-includes/plugin.php(515): WP_Hook->do_action(Array)
#3 /Applications/MAMP/htdocs/gomatodo/wp-cron.php(117): do_action_ref_array('watson_save_to_...', Array)
#4 {main}
  thrown

2017-10-25T04:47:33+00:00 CRITICAL Uncaught Error: Unsupported operand types in /Applications/MAMP/htdocs/gomatodo/wp-content/plugins/conversation-watson/includes/api.php:141
Stack trace:
#0 /Applications/MAMP/htdocs/gomatodo/wp-includes/class-wp-hook.php(298): WatsonConv\API::record_api_usage()
#1 /Applications/MAMP/htdocs/gomatodo/wp-includes/class-wp-hook.php(323): WP_Hook->apply_filters('', Array)
#2 /Applications/MAMP/htdocs/gomatodo/wp-includes/plugin.php(515): WP_Hook->do_action(Array)
#3 /Applications/MAMP/htdocs/gomatodo/wp-cron.php(117): do_action_ref_array('watson_save_to_...', Array)
#4 {main}
  thrown

2017-10-25T04:48:44+00:00 CRITICAL Uncaught Error: Unsupported operand types in /Applications/MAMP/htdocs/gomatodo/wp-content/plugins/conversation-watson/includes/api.php:141
Stack trace:
#0 /Applications/MAMP/htdocs/gomatodo/wp-includes/class-wp-hook.php(298): WatsonConv\API::record_api_usage()
#1 /Applications/MAMP/htdocs/gomatodo/wp-includes/class-wp-hook.php(323): WP_Hook->apply_filters('', Array)
#2 /Applications/MAMP/htdocs/gomatodo/wp-includes/plugin.php(515): WP_Hook->do_action(Array)
#3 /Applications/MAMP/htdocs/gomatodo/wp-cron.php(117): do_action_ref_array('watson_save_to_...', Array)
#4 {main}
  thrown

2017-10-25T04:54:42+00:00 CRITICAL Uncaught Error: Unsupported operand types in /Applications/MAMP/htdocs/gomatodo/wp-content/plugins/conversation-watson/includes/api.php:141
Stack trace:
#0 /Applications/MAMP/htdocs/gomatodo/wp-includes/class-wp-hook.php(298): WatsonConv\API::record_api_usage()
#1 /Applications/MAMP/htdocs/gomatodo/wp-includes/class-wp-hook.php(323): WP_Hook->apply_filters('', Array)
#2 /Applications/MAMP/htdocs/gomatodo/wp-includes/plugin.php(515): WP_Hook->do_action(Array)
#3 /Applications/MAMP/htdocs/gomatodo/wp-cron.php(117): do_action_ref_array('watson_save_to_...', Array)
#4 {main}
  thrown

2017-10-25T04:55:49+00:00 CRITICAL Uncaught Error: Unsupported operand types in /Applications/MAMP/htdocs/gomatodo/wp-content/plugins/conversation-watson/includes/api.php:141
Stack trace:
#0 /Applications/MAMP/htdocs/gomatodo/wp-includes/class-wp-hook.php(298): WatsonConv\API::record_api_usage()
#1 /Applications/MAMP/htdocs/gomatodo/wp-includes/class-wp-hook.php(323): WP_Hook->apply_filters('', Array)
#2 /Applications/MAMP/htdocs/gomatodo/wp-includes/plugin.php(515): WP_Hook->do_action(Array)
#3 /Applications/MAMP/htdocs/gomatodo/wp-cron.php(117): do_action_ref_array('watson_save_to_...', Array)
#4 {main}
  thrown

2017-10-25T04:57:02+00:00 CRITICAL Uncaught Error: Unsupported operand types in /Applications/MAMP/htdocs/gomatodo/wp-content/plugins/conversation-watson/includes/api.php:141
Stack trace:
#0 /Applications/MAMP/htdocs/gomatodo/wp-includes/class-wp-hook.php(298): WatsonConv\API::record_api_usage()
#1 /Applications/MAMP/htdocs/gomatodo/wp-includes/class-wp-hook.php(323): WP_Hook->apply_filters('', Array)
#2 /Applications/MAMP/htdocs/gomatodo/wp-includes/plugin.php(515): WP_Hook->do_action(Array)
#3 /Applications/MAMP/htdocs/gomatodo/wp-cron.php(117): do_action_ref_array('watson_save_to_...', Array)
#4 {main}
  thrown

2017-10-25T04:58:11+00:00 CRITICAL Uncaught Error: Unsupported operand types in /Applications/MAMP/htdocs/gomatodo/wp-content/plugins/conversation-watson/includes/api.php:141
Stack trace:
#0 /Applications/MAMP/htdocs/gomatodo/wp-includes/class-wp-hook.php(298): WatsonConv\API::record_api_usage()
#1 /Applications/MAMP/htdocs/gomatodo/wp-includes/class-wp-hook.php(323): WP_Hook->apply_filters('', Array)
#2 /Applications/MAMP/htdocs/gomatodo/wp-includes/plugin.php(515): WP_Hook->do_action(Array)
#3 /Applications/MAMP/htdocs/gomatodo/wp-cron.php(117): do_action_ref_array('watson_save_to_...', Array)
#4 {main}
  thrown

2017-10-25T04:59:44+00:00 CRITICAL Uncaught Error: Unsupported operand types in /Applications/MAMP/htdocs/gomatodo/wp-content/plugins/conversation-watson/includes/api.php:141
Stack trace:
#0 /Applications/MAMP/htdocs/gomatodo/wp-includes/class-wp-hook.php(298): WatsonConv\API::record_api_usage()
#1 /Applications/MAMP/htdocs/gomatodo/wp-includes/class-wp-hook.php(323): WP_Hook->apply_filters('', Array)
#2 /Applications/MAMP/htdocs/gomatodo/wp-includes/plugin.php(515): WP_Hook->do_action(Array)
#3 /Applications/MAMP/htdocs/gomatodo/wp-cron.php(117): do_action_ref_array('watson_save_to_...', Array)
#4 {main}
  thrown

2017-10-25T05:00:45+00:00 CRITICAL Uncaught Error: Unsupported operand types in /Applications/MAMP/htdocs/gomatodo/wp-content/plugins/conversation-watson/includes/api.php:141
Stack trace:
#0 /Applications/MAMP/htdocs/gomatodo/wp-includes/class-wp-hook.php(298): WatsonConv\API::record_api_usage()
#1 /Applications/MAMP/htdocs/gomatodo/wp-includes/class-wp-hook.php(323): WP_Hook->apply_filters('', Array)
#2 /Applications/MAMP/htdocs/gomatodo/wp-includes/plugin.php(515): WP_Hook->do_action(Array)
#3 /Applications/MAMP/htdocs/gomatodo/wp-cron.php(117): do_action_ref_array('watson_save_to_...', Array)
#4 {main}
  thrown

2017-10-25T05:01:48+00:00 CRITICAL Uncaught Error: Unsupported operand types in /Applications/MAMP/htdocs/gomatodo/wp-content/plugins/conversation-watson/includes/api.php:141
Stack trace:
#0 /Applications/MAMP/htdocs/gomatodo/wp-includes/class-wp-hook.php(298): WatsonConv\API::record_api_usage()
#1 /Applications/MAMP/htdocs/gomatodo/wp-includes/class-wp-hook.php(323): WP_Hook->apply_filters('', Array)
#2 /Applications/MAMP/htdocs/gomatodo/wp-includes/plugin.php(515): WP_Hook->do_action(Array)
#3 /Applications/MAMP/htdocs/gomatodo/wp-cron.php(117): do_action_ref_array('watson_save_to_...', Array)
#4 {main}
  thrown

2017-10-25T05:03:01+00:00 CRITICAL Uncaught Error: Unsupported operand types in /Applications/MAMP/htdocs/gomatodo/wp-content/plugins/conversation-watson/includes/api.php:141
Stack trace:
#0 /Applications/MAMP/htdocs/gomatodo/wp-includes/class-wp-hook.php(298): WatsonConv\API::record_api_usage()
#1 /Applications/MAMP/htdocs/gomatodo/wp-includes/class-wp-hook.php(323): WP_Hook->apply_filters('', Array)
#2 /Applications/MAMP/htdocs/gomatodo/wp-includes/plugin.php(515): WP_Hook->do_action(Array)
#3 /Applications/MAMP/htdocs/gomatodo/wp-cron.php(117): do_action_ref_array('watson_save_to_...', Array)
#4 {main}
  thrown

2017-10-25T05:04:22+00:00 CRITICAL Uncaught Error: Unsupported operand types in /Applications/MAMP/htdocs/gomatodo/wp-content/plugins/conversation-watson/includes/api.php:141
Stack trace:
#0 /Applications/MAMP/htdocs/gomatodo/wp-includes/class-wp-hook.php(298): WatsonConv\API::record_api_usage()
#1 /Applications/MAMP/htdocs/gomatodo/wp-includes/class-wp-hook.php(323): WP_Hook->apply_filters('', Array)
#2 /Applications/MAMP/htdocs/gomatodo/wp-includes/plugin.php(515): WP_Hook->do_action(Array)
#3 /Applications/MAMP/htdocs/gomatodo/wp-cron.php(117): do_action_ref_array('watson_save_to_...', Array)
#4 {main}
  thrown

2017-10-25T05:12:29+00:00 CRITICAL Uncaught Error: Unsupported operand types in /Applications/MAMP/htdocs/gomatodo/wp-content/plugins/conversation-watson/includes/api.php:141
Stack trace:
#0 /Applications/MAMP/htdocs/gomatodo/wp-includes/class-wp-hook.php(298): WatsonConv\API::record_api_usage()
#1 /Applications/MAMP/htdocs/gomatodo/wp-includes/class-wp-hook.php(323): WP_Hook->apply_filters('', Array)
#2 /Applications/MAMP/htdocs/gomatodo/wp-includes/plugin.php(515): WP_Hook->do_action(Array)
#3 /Applications/MAMP/htdocs/gomatodo/wp-cron.php(117): do_action_ref_array('watson_save_to_...', Array)
#4 {main}
  thrown

2017-10-25T05:13:30+00:00 CRITICAL Uncaught Error: Unsupported operand types in /Applications/MAMP/htdocs/gomatodo/wp-content/plugins/conversation-watson/includes/api.php:141
Stack trace:
#0 /Applications/MAMP/htdocs/gomatodo/wp-includes/class-wp-hook.php(298): WatsonConv\API::record_api_usage()
#1 /Applications/MAMP/htdocs/gomatodo/wp-includes/class-wp-hook.php(323): WP_Hook->apply_filters('', Array)
#2 /Applications/MAMP/htdocs/gomatodo/wp-includes/plugin.php(515): WP_Hook->do_action(Array)
#3 /Applications/MAMP/htdocs/gomatodo/wp-cron.php(117): do_action_ref_array('watson_save_to_...', Array)
#4 {main}
  thrown

2017-10-25T05:15:37+00:00 CRITICAL Uncaught Error: Unsupported operand types in /Applications/MAMP/htdocs/gomatodo/wp-content/plugins/conversation-watson/includes/api.php:141
Stack trace:
#0 /Applications/MAMP/htdocs/gomatodo/wp-includes/class-wp-hook.php(298): WatsonConv\API::record_api_usage()
#1 /Applications/MAMP/htdocs/gomatodo/wp-includes/class-wp-hook.php(323): WP_Hook->apply_filters('', Array)
#2 /Applications/MAMP/htdocs/gomatodo/wp-includes/plugin.php(515): WP_Hook->do_action(Array)
#3 /Applications/MAMP/htdocs/gomatodo/wp-cron.php(117): do_action_ref_array('watson_save_to_...', Array)
#4 {main}
  thrown

2017-10-25T05:16:43+00:00 CRITICAL Uncaught Error: Unsupported operand types in /Applications/MAMP/htdocs/gomatodo/wp-content/plugins/conversation-watson/includes/api.php:141
Stack trace:
#0 /Applications/MAMP/htdocs/gomatodo/wp-includes/class-wp-hook.php(298): WatsonConv\API::record_api_usage()
#1 /Applications/MAMP/htdocs/gomatodo/wp-includes/class-wp-hook.php(323): WP_Hook->apply_filters('', Array)
#2 /Applications/MAMP/htdocs/gomatodo/wp-includes/plugin.php(515): WP_Hook->do_action(Array)
#3 /Applications/MAMP/htdocs/gomatodo/wp-cron.php(117): do_action_ref_array('watson_save_to_...', Array)
#4 {main}
  thrown

2017-10-25T05:17:45+00:00 CRITICAL Uncaught Error: Unsupported operand types in /Applications/MAMP/htdocs/gomatodo/wp-content/plugins/conversation-watson/includes/api.php:141
Stack trace:
#0 /Applications/MAMP/htdocs/gomatodo/wp-includes/class-wp-hook.php(298): WatsonConv\API::record_api_usage()
#1 /Applications/MAMP/htdocs/gomatodo/wp-includes/class-wp-hook.php(323): WP_Hook->apply_filters('', Array)
#2 /Applications/MAMP/htdocs/gomatodo/wp-includes/plugin.php(515): WP_Hook->do_action(Array)
#3 /Applications/MAMP/htdocs/gomatodo/wp-cron.php(117): do_action_ref_array('watson_save_to_...', Array)
#4 {main}
  thrown

2017-10-25T05:19:05+00:00 CRITICAL Uncaught Error: Unsupported operand types in /Applications/MAMP/htdocs/gomatodo/wp-content/plugins/conversation-watson/includes/api.php:141
Stack trace:
#0 /Applications/MAMP/htdocs/gomatodo/wp-includes/class-wp-hook.php(298): WatsonConv\API::record_api_usage()
#1 /Applications/MAMP/htdocs/gomatodo/wp-includes/class-wp-hook.php(323): WP_Hook->apply_filters('', Array)
#2 /Applications/MAMP/htdocs/gomatodo/wp-includes/plugin.php(515): WP_Hook->do_action(Array)
#3 /Applications/MAMP/htdocs/gomatodo/wp-cron.php(117): do_action_ref_array('watson_save_to_...', Array)
#4 {main}
  thrown

2017-10-25T05:20:13+00:00 CRITICAL Uncaught Error: Unsupported operand types in /Applications/MAMP/htdocs/gomatodo/wp-content/plugins/conversation-watson/includes/api.php:141
Stack trace:
#0 /Applications/MAMP/htdocs/gomatodo/wp-includes/class-wp-hook.php(298): WatsonConv\API::record_api_usage()
#1 /Applications/MAMP/htdocs/gomatodo/wp-includes/class-wp-hook.php(323): WP_Hook->apply_filters('', Array)
#2 /Applications/MAMP/htdocs/gomatodo/wp-includes/plugin.php(515): WP_Hook->do_action(Array)
#3 /Applications/MAMP/htdocs/gomatodo/wp-cron.php(117): do_action_ref_array('watson_save_to_...', Array)
#4 {main}
  thrown

2017-10-25T05:26:06+00:00 CRITICAL Uncaught Error: Unsupported operand types in /Applications/MAMP/htdocs/gomatodo/wp-content/plugins/conversation-watson/includes/api.php:141
Stack trace:
#0 /Applications/MAMP/htdocs/gomatodo/wp-includes/class-wp-hook.php(298): WatsonConv\API::record_api_usage()
#1 /Applications/MAMP/htdocs/gomatodo/wp-includes/class-wp-hook.php(323): WP_Hook->apply_filters('', Array)
#2 /Applications/MAMP/htdocs/gomatodo/wp-includes/plugin.php(515): WP_Hook->do_action(Array)
#3 /Applications/MAMP/htdocs/gomatodo/wp-cron.php(117): do_action_ref_array('watson_save_to_...', Array)
#4 {main}
  thrown

2017-10-25T05:27:26+00:00 CRITICAL Uncaught Error: Unsupported operand types in /Applications/MAMP/htdocs/gomatodo/wp-content/plugins/conversation-watson/includes/api.php:141
Stack trace:
#0 /Applications/MAMP/htdocs/gomatodo/wp-includes/class-wp-hook.php(298): WatsonConv\API::record_api_usage()
#1 /Applications/MAMP/htdocs/gomatodo/wp-includes/class-wp-hook.php(323): WP_Hook->apply_filters('', Array)
#2 /Applications/MAMP/htdocs/gomatodo/wp-includes/plugin.php(515): WP_Hook->do_action(Array)
#3 /Applications/MAMP/htdocs/gomatodo/wp-cron.php(117): do_action_ref_array('watson_save_to_...', Array)
#4 {main}
  thrown

2017-10-25T05:29:26+00:00 CRITICAL Uncaught Error: Unsupported operand types in /Applications/MAMP/htdocs/gomatodo/wp-content/plugins/conversation-watson/includes/api.php:141
Stack trace:
#0 /Applications/MAMP/htdocs/gomatodo/wp-includes/class-wp-hook.php(298): WatsonConv\API::record_api_usage()
#1 /Applications/MAMP/htdocs/gomatodo/wp-includes/class-wp-hook.php(323): WP_Hook->apply_filters('', Array)
#2 /Applications/MAMP/htdocs/gomatodo/wp-includes/plugin.php(515): WP_Hook->do_action(Array)
#3 /Applications/MAMP/htdocs/gomatodo/wp-cron.php(117): do_action_ref_array('watson_save_to_...', Array)
#4 {main}
  thrown

2017-10-25T05:30:27+00:00 CRITICAL Uncaught Error: Unsupported operand types in /Applications/MAMP/htdocs/gomatodo/wp-content/plugins/conversation-watson/includes/api.php:141
Stack trace:
#0 /Applications/MAMP/htdocs/gomatodo/wp-includes/class-wp-hook.php(298): WatsonConv\API::record_api_usage()
#1 /Applications/MAMP/htdocs/gomatodo/wp-includes/class-wp-hook.php(323): WP_Hook->apply_filters('', Array)
#2 /Applications/MAMP/htdocs/gomatodo/wp-includes/plugin.php(515): WP_Hook->do_action(Array)
#3 /Applications/MAMP/htdocs/gomatodo/wp-cron.php(117): do_action_ref_array('watson_save_to_...', Array)
#4 {main}
  thrown

2017-10-25T05:31:28+00:00 CRITICAL Uncaught Error: Unsupported operand types in /Applications/MAMP/htdocs/gomatodo/wp-content/plugins/conversation-watson/includes/api.php:141
Stack trace:
#0 /Applications/MAMP/htdocs/gomatodo/wp-includes/class-wp-hook.php(298): WatsonConv\API::record_api_usage()
#1 /Applications/MAMP/htdocs/gomatodo/wp-includes/class-wp-hook.php(323): WP_Hook->apply_filters('', Array)
#2 /Applications/MAMP/htdocs/gomatodo/wp-includes/plugin.php(515): WP_Hook->do_action(Array)
#3 /Applications/MAMP/htdocs/gomatodo/wp-cron.php(117): do_action_ref_array('watson_save_to_...', Array)
#4 {main}
  thrown

2017-10-25T05:33:35+00:00 CRITICAL Uncaught Error: Unsupported operand types in /Applications/MAMP/htdocs/gomatodo/wp-content/plugins/conversation-watson/includes/api.php:141
Stack trace:
#0 /Applications/MAMP/htdocs/gomatodo/wp-includes/class-wp-hook.php(298): WatsonConv\API::record_api_usage()
#1 /Applications/MAMP/htdocs/gomatodo/wp-includes/class-wp-hook.php(323): WP_Hook->apply_filters('', Array)
#2 /Applications/MAMP/htdocs/gomatodo/wp-includes/plugin.php(515): WP_Hook->do_action(Array)
#3 /Applications/MAMP/htdocs/gomatodo/wp-cron.php(117): do_action_ref_array('watson_save_to_...', Array)
#4 {main}
  thrown

2017-10-25T05:35:40+00:00 CRITICAL Uncaught Error: Unsupported operand types in /Applications/MAMP/htdocs/gomatodo/wp-content/plugins/conversation-watson/includes/api.php:141
Stack trace:
#0 /Applications/MAMP/htdocs/gomatodo/wp-includes/class-wp-hook.php(298): WatsonConv\API::record_api_usage()
#1 /Applications/MAMP/htdocs/gomatodo/wp-includes/class-wp-hook.php(323): WP_Hook->apply_filters('', Array)
#2 /Applications/MAMP/htdocs/gomatodo/wp-includes/plugin.php(515): WP_Hook->do_action(Array)
#3 /Applications/MAMP/htdocs/gomatodo/wp-cron.php(117): do_action_ref_array('watson_save_to_...', Array)
#4 {main}
  thrown

2017-10-25T05:37:41+00:00 CRITICAL Uncaught Error: Unsupported operand types in /Applications/MAMP/htdocs/gomatodo/wp-content/plugins/conversation-watson/includes/api.php:141
Stack trace:
#0 /Applications/MAMP/htdocs/gomatodo/wp-includes/class-wp-hook.php(298): WatsonConv\API::record_api_usage()
#1 /Applications/MAMP/htdocs/gomatodo/wp-includes/class-wp-hook.php(323): WP_Hook->apply_filters('', Array)
#2 /Applications/MAMP/htdocs/gomatodo/wp-includes/plugin.php(515): WP_Hook->do_action(Array)
#3 /Applications/MAMP/htdocs/gomatodo/wp-cron.php(117): do_action_ref_array('watson_save_to_...', Array)
#4 {main}
  thrown

2017-10-25T05:39:33+00:00 CRITICAL Uncaught Error: Unsupported operand types in /Applications/MAMP/htdocs/gomatodo/wp-content/plugins/conversation-watson/includes/api.php:141
Stack trace:
#0 /Applications/MAMP/htdocs/gomatodo/wp-includes/class-wp-hook.php(298): WatsonConv\API::record_api_usage()
#1 /Applications/MAMP/htdocs/gomatodo/wp-includes/class-wp-hook.php(323): WP_Hook->apply_filters('', Array)
#2 /Applications/MAMP/htdocs/gomatodo/wp-includes/plugin.php(515): WP_Hook->do_action(Array)
#3 /Applications/MAMP/htdocs/gomatodo/wp-cron.php(117): do_action_ref_array('watson_save_to_...', Array)
#4 {main}
  thrown

2017-10-25T05:41:13+00:00 CRITICAL Uncaught Error: Unsupported operand types in /Applications/MAMP/htdocs/gomatodo/wp-content/plugins/conversation-watson/includes/api.php:141
Stack trace:
#0 /Applications/MAMP/htdocs/gomatodo/wp-includes/class-wp-hook.php(298): WatsonConv\API::record_api_usage()
#1 /Applications/MAMP/htdocs/gomatodo/wp-includes/class-wp-hook.php(323): WP_Hook->apply_filters('', Array)
#2 /Applications/MAMP/htdocs/gomatodo/wp-includes/plugin.php(515): WP_Hook->do_action(Array)
#3 /Applications/MAMP/htdocs/gomatodo/wp-cron.php(117): do_action_ref_array('watson_save_to_...', Array)
#4 {main}
  thrown

2017-10-25T05:42:26+00:00 CRITICAL Uncaught Error: Unsupported operand types in /Applications/MAMP/htdocs/gomatodo/wp-content/plugins/conversation-watson/includes/api.php:141
Stack trace:
#0 /Applications/MAMP/htdocs/gomatodo/wp-includes/class-wp-hook.php(298): WatsonConv\API::record_api_usage()
#1 /Applications/MAMP/htdocs/gomatodo/wp-includes/class-wp-hook.php(323): WP_Hook->apply_filters('', Array)
#2 /Applications/MAMP/htdocs/gomatodo/wp-includes/plugin.php(515): WP_Hook->do_action(Array)
#3 /Applications/MAMP/htdocs/gomatodo/wp-cron.php(117): do_action_ref_array('watson_save_to_...', Array)
#4 {main}
  thrown

2017-10-25T05:53:01+00:00 CRITICAL Uncaught Error: Unsupported operand types in /Applications/MAMP/htdocs/gomatodo/wp-content/plugins/conversation-watson/includes/api.php:141
Stack trace:
#0 /Applications/MAMP/htdocs/gomatodo/wp-includes/class-wp-hook.php(298): WatsonConv\API::record_api_usage()
#1 /Applications/MAMP/htdocs/gomatodo/wp-includes/class-wp-hook.php(323): WP_Hook->apply_filters('', Array)
#2 /Applications/MAMP/htdocs/gomatodo/wp-includes/plugin.php(515): WP_Hook->do_action(Array)
#3 /Applications/MAMP/htdocs/gomatodo/wp-cron.php(117): do_action_ref_array('watson_save_to_...', Array)
#4 {main}
  thrown

2017-10-25T12:27:59+00:00 CRITICAL Uncaught Error: Unsupported operand types in /Applications/MAMP/htdocs/gomatodo/wp-content/plugins/conversation-watson/includes/api.php:141
Stack trace:
#0 /Applications/MAMP/htdocs/gomatodo/wp-includes/class-wp-hook.php(298): WatsonConv\API::record_api_usage()
#1 /Applications/MAMP/htdocs/gomatodo/wp-includes/class-wp-hook.php(323): WP_Hook->apply_filters('', Array)
#2 /Applications/MAMP/htdocs/gomatodo/wp-includes/plugin.php(515): WP_Hook->do_action(Array)
#3 /Applications/MAMP/htdocs/gomatodo/wp-cron.php(117): do_action_ref_array('watson_save_to_...', Array)
#4 {main}
  thrown

2017-10-25T12:31:01+00:00 CRITICAL Uncaught Error: Unsupported operand types in /Applications/MAMP/htdocs/gomatodo/wp-content/plugins/conversation-watson/includes/api.php:141
Stack trace:
#0 /Applications/MAMP/htdocs/gomatodo/wp-includes/class-wp-hook.php(298): WatsonConv\API::record_api_usage()
#1 /Applications/MAMP/htdocs/gomatodo/wp-includes/class-wp-hook.php(323): WP_Hook->apply_filters('', Array)
#2 /Applications/MAMP/htdocs/gomatodo/wp-includes/plugin.php(515): WP_Hook->do_action(Array)
#3 /Applications/MAMP/htdocs/gomatodo/wp-cron.php(117): do_action_ref_array('watson_save_to_...', Array)
#4 {main}
  thrown

2017-10-25T12:32:16+00:00 CRITICAL Uncaught Error: Unsupported operand types in /Applications/MAMP/htdocs/gomatodo/wp-content/plugins/conversation-watson/includes/api.php:141
Stack trace:
#0 /Applications/MAMP/htdocs/gomatodo/wp-includes/class-wp-hook.php(298): WatsonConv\API::record_api_usage()
#1 /Applications/MAMP/htdocs/gomatodo/wp-includes/class-wp-hook.php(323): WP_Hook->apply_filters('', Array)
#2 /Applications/MAMP/htdocs/gomatodo/wp-includes/plugin.php(515): WP_Hook->do_action(Array)
#3 /Applications/MAMP/htdocs/gomatodo/wp-cron.php(117): do_action_ref_array('watson_save_to_...', Array)
#4 {main}
  thrown

2017-10-25T14:30:28+00:00 CRITICAL Uncaught Error: Unsupported operand types in /Applications/MAMP/htdocs/gomatodo/wp-content/plugins/conversation-watson/includes/api.php:141
Stack trace:
#0 /Applications/MAMP/htdocs/gomatodo/wp-includes/class-wp-hook.php(298): WatsonConv\API::record_api_usage()
#1 /Applications/MAMP/htdocs/gomatodo/wp-includes/class-wp-hook.php(323): WP_Hook->apply_filters('', Array)
#2 /Applications/MAMP/htdocs/gomatodo/wp-includes/plugin.php(515): WP_Hook->do_action(Array)
#3 /Applications/MAMP/htdocs/gomatodo/wp-cron.php(117): do_action_ref_array('watson_save_to_...', Array)
#4 {main}
  thrown

2017-10-27T21:21:39+00:00 CRITICAL Uncaught Error: Unsupported operand types in /Applications/MAMP/htdocs/gomatodo/wp-content/plugins/conversation-watson/includes/api.php:141
Stack trace:
#0 /Applications/MAMP/htdocs/gomatodo/wp-includes/class-wp-hook.php(298): WatsonConv\API::record_api_usage()
#1 /Applications/MAMP/htdocs/gomatodo/wp-includes/class-wp-hook.php(323): WP_Hook->apply_filters('', Array)
#2 /Applications/MAMP/htdocs/gomatodo/wp-includes/plugin.php(515): WP_Hook->do_action(Array)
#3 /Applications/MAMP/htdocs/gomatodo/wp-cron.php(117): do_action_ref_array('watson_save_to_...', Array)
#4 {main}
  thrown

2017-10-27T21:25:16+00:00 CRITICAL Uncaught Error: Unsupported operand types in /Applications/MAMP/htdocs/gomatodo/wp-content/plugins/conversation-watson/includes/api.php:141
Stack trace:
#0 /Applications/MAMP/htdocs/gomatodo/wp-includes/class-wp-hook.php(298): WatsonConv\API::record_api_usage()
#1 /Applications/MAMP/htdocs/gomatodo/wp-includes/class-wp-hook.php(323): WP_Hook->apply_filters('', Array)
#2 /Applications/MAMP/htdocs/gomatodo/wp-includes/plugin.php(515): WP_Hook->do_action(Array)
#3 /Applications/MAMP/htdocs/gomatodo/wp-cron.php(117): do_action_ref_array('watson_save_to_...', Array)
#4 {main}
  thrown

