<?xml version="1.0" standalone="no"?>
<!DOCTYPE svg PUBLIC "-//W3C//DTD SVG 20010904//EN"
 "http://www.w3.org/TR/2001/REC-SVG-20010904/DTD/svg10.dtd">
<svg version="1.0" xmlns="http://www.w3.org/2000/svg"
 width="16.000000pt" height="16.000000pt" viewBox="0 0 16.000000 16.000000"
 preserveAspectRatio="xMidYMid meet">
<metadata>
Created by potrace 1.11, written by Peter Selinger 2001-2013
</metadata>
<g transform="translate(0.000000,16.000000) scale(0.002286,-0.002286)"
fill="#000000" stroke="none">
<path d="M2318 4865 c-2 -3 -34 -7 -69 -10 -35 -3 -80 -7 -99 -9 -19 -3 -66
-8 -105 -11 -38 -3 -78 -8 -87 -11 -9 -3 -32 -6 -51 -8 -19 -2 -39 -6 -44 -9
-6 -4 -26 -7 -46 -9 -21 -1 -37 -6 -37 -10 0 -4 -7 -5 -15 -2 -8 3 -20 2 -27
-2 -7 -5 -15 -9 -18 -10 -3 0 -27 -4 -55 -9 -27 -4 -61 -12 -75 -17 -14 -6
-38 -12 -55 -15 -16 -3 -32 -8 -35 -11 -3 -4 -12 -9 -20 -11 -73 -19 -112 -32
-153 -50 -26 -11 -49 -19 -51 -18 -1 1 -10 -4 -19 -12 -10 -7 -17 -11 -17 -7
0 3 -21 -6 -47 -21 -27 -14 -68 -37 -93 -50 -25 -14 -51 -32 -57 -41 -7 -9
-13 -13 -13 -9 0 8 -47 -20 -68 -41 -8 -7 -30 -25 -49 -40 -42 -31 -104 -93
-130 -129 -10 -14 -24 -31 -30 -38 -7 -8 -13 -18 -13 -23 0 -5 -7 -15 -15 -22
-8 -7 -12 -16 -9 -21 3 -5 2 -9 -3 -9 -4 0 -19 -25 -33 -55 -14 -30 -28 -55
-31 -55 -3 0 -14 -21 -24 -47 -10 -27 -21 -52 -25 -58 -12 -17 -13 -155 -1
-155 6 0 10 -3 9 -7 -5 -22 36 -91 62 -107 17 -9 30 -22 30 -27 0 -6 15 -17
33 -25 17 -8 39 -18 47 -23 48 -27 79 -39 115 -46 22 -4 46 -12 54 -18 12 -10
13 -9 6 3 -8 13 -6 13 8 2 9 -8 21 -11 27 -7 5 3 10 2 10 -4 0 -5 8 -10 17
-10 21 0 44 -4 58 -12 6 -3 22 -5 38 -4 15 0 27 -2 27 -5 0 -4 6 -7 13 -7 6 0
57 -4 112 -9 55 -4 117 -8 137 -8 20 0 35 -2 33 -5 -2 -4 37 -6 86 -5 56 0 89
-4 89 -10 0 -6 5 -4 10 4 8 12 10 12 10 1 0 -11 3 -11 15 -1 8 7 15 8 15 3 0
-5 9 -9 20 -9 11 0 20 5 20 11 0 5 4 4 9 -4 8 -12 12 -12 24 -2 10 8 17 8 21
2 4 -7 168 -10 467 -10 336 0 458 3 453 11 -5 7 -3 8 7 2 22 -14 90 -14 82 0
-5 8 -3 8 8 0 19 -14 61 -16 53 -2 -5 7 -2 8 7 2 23 -14 49 -15 49 -1 0 9 2 9
8 0 8 -13 29 -12 51 1 9 6 12 5 8 -1 -9 -14 44 -14 62 1 11 8 13 8 8 0 -4 -8
16 -11 68 -12 41 0 82 -1 90 -1 11 -1 8 -13 -13 -53 -14 -29 -31 -56 -36 -59
-5 -4 -5 -12 -2 -18 4 -6 3 -11 -2 -11 -5 0 -12 -8 -16 -17 -3 -10 -18 -40
-34 -68 -61 -109 -72 -130 -72 -144 0 -8 -3 -11 -7 -8 -7 7 -38 -51 -35 -65 1
-5 -2 -8 -6 -8 -5 0 -15 -18 -22 -40 -7 -21 -17 -37 -21 -34 -8 5 -11 -3 -8
-22 0 -4 -5 -11 -13 -15 -7 -5 -8 -9 -3 -9 79 -6 127 -5 131 2 3 4 10 5 17 1
15 -9 298 -10 304 -1 2 5 9 5 16 1 15 -9 298 -10 304 -1 2 5 9 5 15 1 16 -9
218 -10 224 -1 3 5 10 5 16 1 16 -9 218 -10 224 -1 3 5 10 5 16 1 16 -9 218
-10 224 -1 3 5 11 5 17 1 11 -7 469 -12 462 -5 -2 2 8 20 21 39 13 20 24 41
24 48 0 7 7 18 15 25 8 6 13 15 12 18 -1 4 8 23 20 42 12 19 23 42 25 50 3 14
7 20 36 54 7 9 12 17 11 18 -2 6 26 63 34 69 5 3 8 8 7 10 -4 8 24 59 32 59 4
0 7 3 6 8 -2 10 12 42 39 85 13 20 20 37 16 37 -5 0 -3 4 2 8 6 4 22 31 36 59
14 29 29 50 32 46 4 -3 7 -1 7 5 0 18 53 126 66 134 6 4 15 19 18 34 4 14 18
43 31 65 14 21 32 57 41 79 9 22 20 40 25 40 5 0 9 6 9 13 0 23 34 49 48 35 8
-8 15 -8 27 2 8 7 15 8 15 3 0 -5 9 -9 20 -10 11 -1 18 2 15 8 -4 5 3 5 18 0
13 -5 30 -5 37 -1 9 5 20 4 27 -2 9 -7 17 -7 27 1 11 9 15 9 18 0 3 -9 9 -9
27 1 19 10 22 10 15 -2 -6 -10 -5 -11 7 -1 12 9 18 10 27 1 8 -8 15 -8 26 1
11 9 15 9 18 0 3 -9 9 -9 27 1 19 10 22 10 15 -2 -6 -10 -5 -11 7 -1 12 9 18
10 27 1 8 -8 15 -8 26 1 11 9 15 9 18 0 3 -9 9 -9 27 1 19 10 22 10 15 -2 -6
-10 -5 -11 7 -1 12 9 18 10 27 1 8 -8 15 -8 27 2 8 7 15 8 15 3 0 -5 9 -9 20
-10 13 -1 18 2 13 10 -4 8 -1 8 9 -1 12 -10 18 -10 23 -1 6 8 9 8 15 -1 6 -9
12 -9 30 0 18 10 21 10 14 -2 -6 -10 -5 -11 7 -1 12 9 18 10 27 1 8 -8 15 -8
26 1 11 9 15 9 18 0 3 -9 9 -9 27 1 19 10 22 10 15 -2 -6 -10 -5 -11 7 -1 12
9 18 10 27 1 8 -8 15 -8 27 2 8 7 15 8 15 3 0 -5 9 -9 20 -10 11 -1 18 2 16 6
-6 10 25 8 42 -3 7 -4 19 -2 27 4 8 7 15 8 15 3 0 -5 9 -9 20 -10 11 -1 18 2
15 8 -4 5 3 5 18 0 13 -5 30 -5 37 -1 9 5 20 4 27 -2 9 -7 17 -7 27 1 11 9 15
9 18 0 3 -9 9 -9 27 1 19 10 22 10 15 -2 -6 -11 -5 -11 8 0 9 7 18 9 21 5 3
-4 33 -8 68 -7 l62 1 34 59 c18 32 41 75 50 94 10 19 22 38 26 41 5 3 8 9 8
13 -1 9 12 40 18 46 4 3 12 17 18 32 9 21 9 27 -1 31 -8 3 -19 0 -25 -6 -6 -6
-11 -7 -11 -1 0 11 -241 11 -260 -1 -7 -5 -11 -4 -8 1 4 5 -20 9 -53 9 -33 0
-59 -4 -59 -10 0 -7 -3 -7 -8 0 -10 14 -105 14 -114 1 -5 -7 -8 -7 -8 -1 0 12
-210 12 -230 0 -7 -5 -11 -4 -8 1 4 5 -20 9 -53 9 -33 0 -59 -4 -59 -10 0 -7
-3 -7 -8 0 -10 14 -105 14 -114 1 -5 -7 -8 -7 -8 -1 0 12 -210 12 -230 0 -7
-5 -11 -4 -7 1 7 12 -106 11 -115 -1 -5 -6 -8 -5 -8 4 0 10 -3 11 -14 2 -11
-9 -15 -9 -19 1 -4 10 -8 10 -16 -2 -8 -12 -11 -12 -11 -1 0 10 -3 11 -14 2
-11 -9 -15 -9 -19 1 -4 10 -8 10 -16 -2 -8 -12 -11 -12 -11 -1 0 11 -3 11 -15
1 -12 -10 -15 -10 -15 1 0 11 -2 11 -10 -1 -5 -8 -10 -10 -10 -5 0 13 -103 13
-112 0 -5 -7 -8 -7 -8 0 0 11 -190 12 -208 1 -6 -3 -13 0 -15 6 -4 10 -8 9
-16 -2 -8 -12 -11 -12 -11 -1 0 10 -3 11 -14 2 -11 -9 -15 -9 -19 1 -4 10 -8
10 -16 -2 -8 -12 -11 -12 -11 -1 0 11 -3 11 -15 1 -12 -10 -15 -10 -15 1 0 11
-2 11 -10 -1 -5 -8 -10 -10 -10 -5 0 13 -103 13 -112 0 -5 -7 -8 -7 -8 0 0 11
-190 12 -208 1 -6 -3 -13 0 -15 6 -4 10 -8 9 -16 -2 -8 -12 -11 -12 -11 -1 0
10 -3 11 -14 2 -11 -9 -15 -9 -19 1 -4 10 -8 10 -16 -2 -8 -12 -11 -12 -11 -1
0 11 -3 11 -15 1 -12 -10 -15 -10 -15 1 0 11 -2 11 -10 -1 -5 -8 -10 -10 -10
-5 0 6 -25 10 -55 10 -30 0 -55 -4 -55 -10 0 -7 -3 -7 -8 0 -9 13 -295 13
-304 0 -5 -7 -8 -7 -8 0 0 12 -210 12 -230 0 -7 -5 -11 -4 -8 1 4 5 -20 9 -53
9 -33 0 -59 -4 -59 -10 0 -7 -3 -7 -8 0 -10 14 -105 14 -114 1 -5 -7 -8 -7 -8
-1 0 7 -137 10 -393 9 -215 0 -397 1 -404 4 -33 11 37 84 119 124 35 17 68 31
73 32 6 1 19 7 30 13 11 6 39 14 63 18 23 4 42 12 42 18 0 8 3 7 9 -2 6 -9 11
-10 15 -2 4 6 12 9 17 6 5 -4 15 -3 22 2 15 9 32 13 80 15 20 2 37 5 37 8 0 3
24 5 53 5 28 0 58 3 65 8 7 6 18 4 29 -4 11 -10 14 -10 9 -1 -9 14 -80 14
1217 14 1075 0 997 -4 1019 60 6 15 14 28 20 28 5 0 6 5 3 10 -3 6 -1 10 6 10
7 0 10 3 6 6 -3 4 5 23 18 43 14 19 25 39 25 43 0 4 14 30 30 58 17 28 30 53
30 56 0 2 -778 4 -1730 4 -1357 0 -1730 -3 -1730 -13 0 -9 -2 -9 -8 1 -5 7
-11 10 -14 7z m336 -893 c11 -2 15 1 11 7 -4 8 1 8 18 2 13 -5 30 -5 37 -1 9
5 20 4 27 -2 9 -7 17 -7 27 1 11 9 15 9 18 0 3 -9 9 -9 27 1 19 10 22 10 15
-2 -6 -10 -5 -11 8 -1 8 7 18 10 21 6 10 -9 487 -10 487 0 0 4 8 4 18 -1 9 -4
32 -7 50 -6 17 1 32 -1 32 -6 0 -16 -72 -150 -81 -150 -5 0 -8 -3 -8 -7 4 -24
-7 -28 -73 -26 -40 1 -145 2 -233 3 -104 1 -165 6 -174 13 -12 10 -13 9 -6 -2
6 -11 5 -12 -6 -5 -8 5 -21 9 -29 10 -32 2 -116 17 -125 23 -5 3 -12 6 -15 7
-37 6 -90 27 -90 36 0 6 -3 9 -6 5 -7 -7 -23 9 -42 41 -9 16 -9 22 0 22 6 0 8
3 5 7 -10 10 13 32 28 27 7 -3 16 0 20 6 4 7 10 8 14 4 3 -5 14 -10 25 -12z"/>
<path d="M210 2543 c0 -6 -7 -18 -15 -27 -15 -15 -11 -46 7 -46 5 0 7 3 5 8
-3 4 6 7 19 7 13 0 24 -4 24 -8 0 -4 9 -3 20 3 14 8 20 8 20 0 0 -8 6 -8 20 0
14 8 20 8 20 0 0 -7 7 -7 21 1 15 8 19 8 15 0 -5 -8 0 -8 18 -1 17 6 26 6 26
-1 0 -6 8 -6 21 2 15 8 19 8 15 0 -5 -8 0 -8 18 -1 17 6 26 6 26 -1 0 -6 8 -6
21 2 15 8 19 8 15 0 -5 -8 0 -8 18 -1 17 6 26 6 26 -1 0 -6 7 -6 20 1 12 6 20
7 20 1 0 -6 11 -6 30 -1 19 5 30 5 30 -1 0 -6 6 -6 18 0 10 6 24 6 32 1 8 -5
19 -6 25 -2 15 10 39 8 47 -2 4 -6 13 -4 22 3 12 11 16 11 16 1 0 -10 3 -10
15 0 12 10 15 10 15 -1 0 -9 3 -10 8 -4 9 13 42 15 42 3 0 -6 6 -5 15 2 8 7
15 8 15 3 0 -5 10 -9 23 -7 12 1 22 3 22 4 0 1 10 3 23 4 12 2 22 -2 22 -7 0
-5 7 -4 15 3 8 7 15 8 15 3 0 -5 7 -10 15 -10 8 0 15 5 15 10 0 5 6 4 14 -2
11 -9 15 -9 19 1 4 10 6 10 6 -1 1 -11 4 -11 16 -1 12 10 15 10 15 0 0 -10 3
-10 15 0 12 10 15 10 15 0 0 -9 4 -9 17 1 14 12 16 12 8 0 -6 -11 -5 -12 6 -5
19 11 42 11 51 0 4 -6 13 -4 22 3 12 11 16 11 16 1 0 -10 3 -10 15 0 12 10 15
10 15 -1 0 -9 3 -10 8 -4 9 13 42 15 42 3 0 -6 6 -5 15 2 8 7 15 8 15 3 0 -5
10 -9 23 -7 12 1 22 3 22 4 0 1 10 3 23 4 12 2 22 -2 22 -7 0 -5 7 -4 15 3 8
7 15 8 15 3 0 -5 7 -10 15 -10 8 0 15 5 15 10 0 5 6 4 14 -2 11 -9 15 -9 19 1
4 10 6 10 6 -1 1 -11 4 -11 16 -1 12 10 15 10 15 0 0 -10 3 -10 15 0 12 10 15
10 15 0 0 -9 4 -9 17 1 14 12 16 12 8 0 -6 -11 -5 -12 6 -5 19 11 42 11 51 0
4 -6 13 -4 22 3 12 11 16 11 16 1 0 -10 3 -10 15 0 12 10 15 10 15 -1 0 -9 3
-10 8 -4 9 13 42 15 42 3 0 -6 6 -5 15 2 12 10 15 10 15 0 0 -10 3 -10 15 0
11 9 15 9 15 1 0 -9 5 -9 21 0 15 8 19 8 15 0 -5 -8 0 -8 18 -1 17 6 26 6 26
-1 0 -6 8 -6 21 2 15 8 19 8 15 0 -5 -8 0 -8 18 -1 17 6 26 6 26 -1 0 -6 8 -6
21 2 15 8 19 8 15 0 -5 -8 0 -8 18 -1 17 6 26 6 26 -1 0 -6 7 -6 20 1 14 8 20
8 20 0 0 -8 6 -8 20 0 14 8 20 8 20 0 0 -7 7 -7 21 1 15 8 19 8 15 0 -5 -8 0
-8 18 -1 17 6 26 6 26 -1 0 -6 8 -6 21 2 15 8 19 8 15 0 -5 -8 0 -8 18 -1 17
6 26 6 26 -1 0 -6 8 -6 21 2 15 8 19 8 15 0 -5 -8 0 -8 18 -1 17 6 26 6 26 -1
0 -6 7 -6 20 1 14 8 20 8 20 0 0 -8 6 -8 20 0 15 8 20 8 20 -1 0 -8 4 -8 15 1
12 10 15 10 15 0 0 -10 3 -10 15 0 12 10 15 10 15 0 0 -9 4 -9 17 1 14 12 16
12 8 0 -6 -11 -5 -12 6 -5 19 11 42 11 51 0 4 -6 13 -4 22 3 12 11 16 11 16 1
0 -10 3 -10 15 0 12 10 15 10 15 -1 0 -9 3 -10 8 -4 9 13 42 15 42 3 0 -6 6
-5 15 2 8 7 15 8 15 3 0 -5 10 -9 23 -7 12 1 22 3 22 4 0 1 10 3 23 4 12 2 22
-2 22 -7 0 -5 7 -4 15 3 8 7 15 8 15 3 0 -5 7 -10 15 -10 8 0 15 5 15 10 0 5
6 4 14 -2 11 -9 15 -9 19 1 4 10 6 10 6 -1 1 -11 4 -11 16 -1 12 10 15 10 15
0 0 -10 3 -10 15 0 12 10 15 10 15 0 0 -9 4 -9 17 1 14 12 16 12 8 0 -6 -11
-5 -12 6 -5 19 11 42 11 51 0 4 -6 13 -4 22 3 12 11 16 11 16 1 0 -10 3 -10
15 0 12 10 15 10 15 -1 0 -9 3 -10 8 -4 9 13 42 15 42 3 0 -6 6 -5 15 2 8 7
15 8 15 3 0 -5 10 -9 23 -7 12 1 22 3 22 4 0 1 10 3 23 4 12 2 22 -2 22 -7 0
-5 7 -4 15 3 8 7 15 8 15 3 0 -5 7 -10 15 -10 8 0 15 5 15 10 0 5 6 4 14 -2
11 -9 15 -9 19 1 4 10 6 10 6 -1 1 -11 4 -11 16 -1 12 10 15 10 15 0 0 -10 3
-10 15 0 12 10 15 10 15 0 0 -9 4 -9 17 1 14 12 16 12 8 0 -6 -11 -5 -12 6 -5
19 11 42 11 51 0 4 -6 13 -4 22 3 12 11 16 11 16 1 0 -10 3 -10 15 0 12 10 15
10 15 -1 0 -9 3 -10 8 -4 9 13 42 15 42 3 0 -6 6 -5 15 2 12 10 15 10 15 0 0
-10 3 -10 15 0 11 9 15 9 15 1 0 -9 5 -9 21 0 15 8 19 8 15 0 -5 -8 0 -8 18
-1 17 6 26 6 26 -1 0 -6 8 -6 21 2 15 8 19 8 15 0 -5 -8 0 -8 18 -1 17 6 26 6
26 -1 0 -6 8 -6 21 2 15 8 19 8 15 0 -5 -8 0 -8 18 -1 17 6 26 6 26 -1 0 -6 7
-6 20 1 14 8 20 8 20 0 0 -8 6 -8 20 0 14 8 20 8 20 0 0 -7 7 -7 21 1 15 8 19
8 15 0 -5 -8 0 -8 18 -1 17 6 26 6 26 -1 0 -6 8 -6 21 2 15 8 19 8 15 0 -5 -8
0 -8 18 -1 17 6 26 6 26 -1 0 -6 8 -6 21 2 15 8 19 8 15 0 -5 -8 0 -8 18 -1
17 6 26 6 26 -1 0 -6 7 -6 20 1 12 6 20 7 20 1 0 -6 11 -6 30 -1 19 5 30 5 30
-1 0 -6 6 -6 18 0 10 6 24 6 32 1 8 -5 19 -6 25 -2 15 10 39 8 47 -2 4 -6 13
-4 22 3 12 11 16 11 16 1 0 -10 3 -10 15 0 12 10 15 10 15 -1 0 -9 3 -10 8 -4
9 13 42 15 42 3 0 -6 6 -5 15 2 8 7 15 8 15 3 0 -5 10 -9 23 -7 12 1 22 3 22
4 0 1 10 3 23 4 12 2 22 -2 22 -7 0 -5 7 -4 15 3 8 7 15 8 15 3 0 -5 7 -10 15
-10 8 0 15 5 15 10 0 5 6 4 14 -2 11 -9 15 -9 19 1 4 10 6 10 6 -1 1 -11 4
-11 16 -1 12 10 15 10 15 0 0 -10 3 -10 15 0 12 10 15 10 15 0 0 -9 4 -9 17 1
14 12 16 12 8 0 -6 -11 -5 -12 6 -5 19 11 42 11 51 0 4 -6 13 -4 22 3 12 11
16 11 16 1 0 -10 3 -10 15 0 12 10 15 10 15 -1 0 -9 3 -10 8 -4 9 13 42 15 42
3 0 -6 6 -5 15 2 8 7 15 8 15 3 0 -5 10 -9 23 -7 12 1 22 3 22 4 0 1 10 3 23
4 12 2 22 -2 22 -7 0 -5 7 -4 15 3 8 7 15 8 15 3 0 -5 7 -10 15 -10 8 0 15 5
15 10 0 5 6 4 14 -2 11 -9 15 -9 19 1 4 10 6 10 6 -1 1 -11 4 -11 16 -1 12 10
15 10 15 0 0 -10 3 -10 15 0 12 10 15 10 15 0 0 -9 4 -9 17 1 14 12 16 12 8 0
-6 -11 -5 -12 6 -5 19 11 42 11 51 0 4 -6 13 -4 22 3 12 11 16 11 16 1 0 -10
3 -10 15 0 12 10 15 10 15 -1 0 -9 3 -10 8 -4 9 13 42 15 42 3 0 -6 6 -5 15 2
12 10 15 10 15 0 0 -10 3 -10 15 0 11 9 15 9 15 1 0 -9 5 -9 21 0 15 8 19 8
15 0 -5 -8 0 -8 18 -1 17 6 26 6 26 -1 0 -6 8 -6 21 2 15 8 19 8 15 0 -5 -8 0
-8 18 -1 17 6 26 6 26 -1 0 -6 8 -6 21 2 15 8 19 8 15 0 -5 -8 0 -8 18 -1 17
6 26 6 26 -1 0 -6 7 -6 20 1 14 8 20 8 20 0 0 -8 6 -8 20 0 14 8 20 8 20 0 0
-7 7 -7 21 1 15 8 19 8 15 0 -5 -8 0 -8 18 -1 17 6 26 6 26 -1 0 -6 7 -6 20 1
14 8 20 8 20 0 0 -8 6 -8 20 0 14 8 20 8 20 0 0 -8 6 -8 20 0 13 7 20 7 20 1
0 -7 9 -7 25 -1 17 7 25 6 25 -1 0 -8 4 -8 14 0 10 8 16 9 21 1 4 -7 12 -7 26
0 10 6 19 7 19 3 0 -4 9 3 19 16 32 42 18 57 -52 56 -34 0 -68 -5 -76 -9 -9
-6 -12 -5 -8 1 7 12 -132 11 -152 -2 -9 -5 -12 -4 -8 2 7 12 -132 11 -152 -2
-9 -5 -12 -4 -8 2 7 12 -132 11 -152 -2 -9 -5 -12 -4 -8 2 8 12 -102 11 -122
-1 -9 -6 -12 -5 -8 1 8 13 -61 11 -82 -1 -10 -6 -12 -5 -7 2 10 16 -7 15 -23
-1 -8 -7 -11 -7 -8 -1 8 14 -60 13 -82 0 -10 -6 -12 -5 -7 2 10 16 -7 15 -23
-1 -8 -7 -11 -7 -8 -1 8 14 -60 13 -82 0 -10 -6 -12 -5 -7 2 10 16 -7 15 -23
-1 -8 -7 -11 -7 -8 -1 8 14 -60 13 -82 0 -10 -6 -12 -5 -7 2 10 16 -7 15 -23
0 -8 -8 -11 -8 -8 -2 8 14 -60 13 -82 0 -10 -6 -12 -5 -7 2 10 16 -7 15 -23 0
-8 -8 -11 -8 -8 -2 8 14 -60 13 -82 0 -10 -6 -12 -5 -7 2 10 16 -7 15 -23 0
-8 -8 -11 -8 -8 -2 8 14 -60 13 -82 0 -10 -6 -12 -5 -7 2 10 16 -7 15 -23 0
-8 -8 -11 -8 -8 -2 8 14 -60 13 -82 0 -10 -6 -12 -5 -7 2 10 16 -7 15 -23 0
-8 -8 -11 -8 -8 -2 8 14 -60 13 -82 0 -10 -6 -12 -5 -7 2 10 16 -7 15 -23 0
-8 -8 -11 -8 -8 -2 8 14 -60 13 -82 0 -10 -6 -12 -5 -7 2 10 16 -7 15 -23 0
-9 -9 -12 -9 -7 -1 7 13 -81 12 -104 -2 -8 -5 -11 -4 -7 2 7 12 -132 11 -152
-2 -9 -5 -12 -4 -8 2 7 12 -132 11 -152 -2 -9 -5 -12 -4 -8 2 7 12 -132 11
-152 -2 -9 -5 -12 -4 -8 1 7 12 -143 12 -162 0 -9 -6 -12 -5 -8 1 8 13 -61 11
-82 -1 -10 -6 -12 -5 -7 2 10 16 -7 15 -23 0 -8 -8 -11 -8 -8 -2 8 14 -60 13
-82 0 -10 -6 -12 -5 -7 2 10 16 -7 15 -23 0 -8 -8 -11 -8 -8 -2 8 14 -60 13
-82 0 -10 -6 -12 -5 -7 2 10 16 -7 15 -23 0 -8 -8 -11 -8 -8 -2 8 14 -60 13
-82 0 -10 -6 -12 -5 -7 2 10 16 -7 15 -23 0 -8 -7 -11 -8 -8 -2 7 13 -131 13
-152 0 -9 -6 -12 -5 -8 1 8 13 -61 11 -82 -1 -10 -6 -12 -5 -7 2 10 16 -7 15
-23 0 -8 -8 -11 -8 -8 -2 8 14 -60 13 -82 0 -10 -6 -12 -5 -7 2 10 16 -7 15
-23 0 -8 -8 -11 -8 -8 -2 8 14 -60 13 -82 0 -10 -6 -12 -5 -7 2 10 16 -7 15
-23 0 -8 -8 -11 -8 -8 -2 8 14 -60 13 -82 0 -10 -6 -12 -5 -7 2 10 16 -7 15
-23 0 -8 -7 -11 -8 -8 -2 8 13 -121 13 -142 -1 -9 -5 -12 -4 -8 2 7 12 -132
11 -152 -2 -9 -5 -12 -4 -8 2 7 12 -132 11 -152 -2 -9 -5 -12 -4 -8 2 7 12
-132 11 -152 -2 -9 -5 -12 -4 -8 2 8 12 -102 11 -122 -1 -9 -6 -12 -5 -8 1 8
13 -61 11 -82 -1 -10 -6 -12 -5 -7 2 10 16 -7 15 -23 0 -8 -8 -11 -8 -8 -2 8
14 -60 13 -82 0 -10 -6 -12 -5 -7 2 10 16 -7 15 -23 0 -8 -8 -11 -8 -8 -2 8
14 -60 13 -82 0 -10 -6 -12 -5 -7 2 10 16 -7 15 -23 0 -8 -8 -11 -8 -8 -2 8
14 -60 13 -82 0 -10 -6 -12 -5 -7 2 10 16 -7 15 -23 0 -8 -8 -11 -8 -8 -2 8
14 -60 13 -82 0 -10 -6 -12 -5 -7 2 10 16 -7 15 -23 0 -8 -8 -11 -8 -8 -2 8
14 -60 13 -82 0 -10 -6 -12 -5 -7 2 10 16 -7 15 -23 0 -8 -8 -11 -8 -8 -2 8
14 -60 13 -82 0 -10 -6 -12 -5 -7 2 10 16 -7 15 -23 0 -8 -8 -11 -8 -8 -2 8
14 -60 13 -82 0 -10 -6 -12 -5 -7 2 10 16 -7 15 -23 0 -8 -8 -11 -8 -8 -2 8
14 -60 13 -82 0 -10 -6 -12 -5 -7 2 10 16 -7 15 -23 0 -8 -8 -11 -8 -8 -2 8
14 -60 13 -82 0 -10 -6 -12 -5 -7 2 10 16 -7 15 -23 0 -9 -9 -12 -9 -7 -1 7
13 -81 12 -104 -2 -8 -5 -11 -4 -7 2 7 12 -132 11 -152 -2 -9 -5 -12 -4 -8 2
8 13 -52 11 -73 -2 -8 -5 -11 -4 -7 2 3 5 -14 9 -44 9 -31 0 -49 -5 -49 -13z"/>
<path d="M170 2373 c0 -5 -12 -9 -27 -8 -17 0 -27 -5 -26 -12 2 -7 -2 -13 -7
-13 -5 0 -10 -6 -10 -14 0 -8 -6 -17 -12 -19 -8 -3 -4 -6 7 -7 11 -2 1425 -3
3142 -4 l3123 -1 7 30 c11 45 10 48 -14 50 -13 1 -23 -3 -23 -9 0 -6 -5 -4
-10 4 -5 8 -10 10 -10 5 0 -12 -40 -13 -58 -1 -7 4 -12 4 -12 -1 0 -10 -62 -9
-78 1 -7 4 -12 3 -12 -1 0 -11 -41 -10 -59 1 -7 5 -16 5 -20 0 -7 -11 -52 -11
-69 0 -6 4 -12 3 -12 -1 0 -10 -41 -10 -58 1 -7 4 -12 4 -12 -1 0 -12 -74 -10
-82 2 -5 7 -8 6 -8 0 0 -11 -45 -13 -56 -2 -3 3 -17 2 -29 -3 -16 -6 -25 -5
-29 3 -3 9 -5 9 -5 -1 -1 -10 -6 -10 -21 -2 -11 6 -20 7 -20 3 0 -10 -113 -9
-129 1 -6 4 -11 2 -11 -4 0 -8 -6 -8 -20 0 -11 6 -20 7 -20 3 0 -12 -244 -10
-252 2 -5 6 -8 5 -8 -3 0 -10 -5 -10 -20 -2 -11 6 -20 7 -20 3 0 -10 -113 -9
-129 1 -6 4 -11 2 -11 -4 0 -8 -6 -8 -20 0 -11 6 -20 7 -20 3 0 -12 -244 -10
-252 2 -5 6 -8 5 -8 -3 0 -10 -5 -10 -20 -2 -11 6 -20 7 -20 3 0 -10 -113 -9
-129 1 -6 4 -11 2 -11 -4 0 -8 -6 -8 -20 0 -12 6 -20 7 -20 1 0 -6 -11 -6 -30
-1 -16 5 -30 6 -30 2 0 -9 -53 -7 -68 2 -7 4 -12 3 -12 -1 0 -10 -41 -10 -58
1 -7 4 -12 4 -12 -1 0 -12 -74 -10 -82 2 -5 7 -8 6 -8 0 0 -12 -40 -12 -59 -1
-7 5 -16 5 -20 0 -7 -11 -52 -11 -69 0 -6 4 -12 3 -12 -1 0 -10 -41 -10 -58 1
-7 4 -12 4 -12 -1 0 -12 -74 -10 -82 2 -5 7 -8 6 -8 0 0 -11 -45 -13 -56 -2
-3 3 -17 2 -29 -3 -16 -6 -25 -5 -29 3 -3 9 -5 9 -5 -1 -1 -10 -6 -10 -21 -2
-11 6 -20 7 -20 3 0 -10 -113 -9 -129 1 -6 4 -11 2 -11 -4 0 -8 -6 -8 -20 0
-11 6 -20 7 -20 3 0 -12 -244 -10 -252 2 -5 6 -8 5 -8 -3 0 -10 -5 -10 -20 -2
-11 6 -20 7 -20 3 0 -10 -113 -9 -129 1 -6 4 -11 2 -11 -4 0 -8 -6 -8 -20 0
-11 6 -20 7 -20 3 0 -12 -244 -10 -252 2 -5 6 -8 5 -8 -3 0 -10 -5 -10 -20 -2
-11 6 -20 7 -20 3 0 -10 -113 -9 -129 1 -6 4 -11 2 -11 -4 0 -8 -6 -8 -20 0
-12 6 -20 7 -20 1 0 -6 -11 -6 -30 -1 -17 5 -30 6 -30 2 0 -9 -53 -7 -68 2 -7
4 -12 3 -12 -1 0 -10 -41 -10 -58 1 -7 4 -12 4 -12 -1 0 -12 -74 -10 -82 2 -5
7 -8 6 -8 0 0 -12 -40 -12 -59 -1 -7 5 -16 5 -20 0 -7 -11 -52 -11 -69 0 -6 4
-12 3 -12 -1 0 -10 -41 -10 -58 1 -7 4 -12 4 -12 -1 0 -12 -74 -10 -82 2 -5 7
-8 6 -8 0 0 -11 -45 -13 -56 -2 -3 3 -17 2 -29 -3 -16 -6 -25 -5 -29 3 -3 9
-5 9 -5 -1 -1 -10 -6 -10 -21 -2 -11 6 -20 7 -20 3 0 -10 -113 -9 -129 1 -6 4
-11 2 -11 -4 0 -8 -6 -8 -20 0 -11 6 -20 7 -20 3 0 -12 -244 -10 -252 2 -5 6
-8 5 -8 -3 0 -10 -5 -10 -20 -2 -11 6 -20 7 -20 3 0 -10 -113 -9 -129 1 -6 4
-11 2 -11 -4 0 -8 -6 -8 -20 0 -11 6 -20 7 -20 3 0 -12 -244 -10 -252 2 -5 6
-8 5 -8 -3 0 -10 -5 -10 -20 -2 -11 6 -20 7 -20 3 0 -10 -113 -9 -129 1 -6 4
-11 2 -11 -4 0 -8 -6 -8 -20 0 -12 6 -20 7 -20 1 0 -6 -11 -6 -30 -1 -16 5
-30 6 -30 2 0 -9 -53 -7 -68 2 -7 4 -12 3 -12 -1 0 -10 -41 -10 -58 1 -7 4
-12 4 -12 -1 0 -12 -74 -10 -82 2 -5 7 -8 6 -8 0 0 -13 -40 -12 -60 0 -8 5
-15 5 -17 -1 -3 -10 -115 -10 -132 0 -6 4 -11 3 -11 -1z"/>
<path d="M76 2201 c-4 -6 -12 -9 -17 -5 -6 3 -19 -3 -30 -15 -11 -12 -16 -21
-12 -21 4 0 1 -4 -7 -10 -8 -5 -11 -13 -6 -17 10 -10 6286 -11 6286 -1 0 5 -1
9 -2 11 -1 1 4 12 10 24 10 19 9 24 -7 32 -10 6 -21 8 -24 4 -10 -10 -51 -10
-64 0 -8 6 -13 6 -13 0 0 -5 -9 -9 -20 -9 -11 0 -20 4 -20 9 0 4 -6 5 -12 1
-19 -12 -48 -12 -48 -1 0 6 -5 6 -12 1 -16 -11 -39 -11 -55 -1 -7 5 -13 4 -13
0 0 -5 -9 -9 -20 -9 -11 0 -20 4 -20 9 0 4 -5 5 -12 1 -18 -11 -78 -11 -78 -1
0 5 -6 5 -13 -1 -8 -7 -18 -7 -27 -2 -8 5 -18 6 -23 3 -15 -9 -57 -11 -51 -2
3 5 0 9 -5 9 -6 0 -11 -4 -11 -9 0 -10 -19 -9 -37 2 -6 4 -14 3 -17 -2 -7 -10
-25 -9 -42 2 -6 3 -14 3 -18 0 -12 -12 -36 -12 -36 0 0 8 -3 8 -8 2 -8 -12
-22 -13 -39 -2 -6 4 -14 3 -17 -2 -7 -10 -25 -9 -43 2 -6 4 -14 3 -17 -2 -4
-5 -18 -7 -34 -5 -32 5 -39 5 -72 1 -14 -2 -32 0 -41 4 -8 4 -21 4 -29 -1 -9
-5 -19 -5 -27 2 -8 6 -13 6 -13 1 0 -11 -29 -11 -48 1 -6 4 -12 3 -12 -2 0
-10 -30 -9 -48 2 -6 4 -12 3 -12 -2 0 -9 -42 -8 -57 1 -5 3 -15 2 -23 -3 -9
-5 -19 -5 -27 2 -8 6 -13 6 -13 1 0 -11 -29 -11 -48 1 -6 4 -12 3 -12 -2 0
-10 -30 -9 -48 2 -6 4 -12 3 -12 -2 0 -5 -12 -7 -27 -5 -61 8 -83 9 -83 2 0
-9 -20 -6 -37 4 -6 4 -14 3 -17 -2 -7 -10 -31 -9 -42 2 -4 4 -14 1 -22 -6 -18
-14 -22 -13 -33 5 -6 8 -9 9 -9 1 0 -12 -17 -12 -37 0 -6 4 -14 3 -17 -2 -7
-10 -25 -9 -42 2 -6 3 -14 3 -18 0 -11 -12 -40 -12 -53 -1 -8 6 -13 6 -13 1 0
-11 -29 -11 -48 1 -6 4 -12 3 -12 -1 0 -5 -9 -9 -20 -9 -11 0 -20 4 -20 9 0 6
-5 6 -12 1 -16 -11 -39 -11 -55 -1 -7 5 -13 4 -13 0 0 -5 -9 -9 -20 -9 -11 0
-20 4 -20 9 0 4 -6 5 -12 1 -19 -12 -48 -12 -48 -1 0 6 -5 6 -12 1 -16 -11
-39 -11 -55 -1 -7 5 -13 4 -13 0 0 -5 -9 -9 -20 -9 -11 0 -20 4 -20 9 0 4 -5
5 -12 1 -18 -11 -78 -11 -78 -1 0 5 -6 5 -13 -1 -8 -7 -18 -7 -27 -2 -8 5 -18
6 -23 3 -15 -9 -57 -11 -51 -2 3 5 0 9 -5 9 -6 0 -11 -4 -11 -9 0 -10 -19 -9
-37 2 -6 4 -14 3 -17 -2 -7 -10 -31 -9 -42 2 -4 4 -14 1 -22 -6 -18 -14 -22
-13 -33 5 -6 8 -9 9 -9 1 0 -12 -17 -12 -37 0 -6 4 -14 3 -17 -2 -7 -10 -25
-9 -43 2 -6 4 -14 3 -17 -2 -4 -5 -18 -7 -34 -5 -32 5 -39 5 -72 1 -14 -2 -32
0 -41 4 -8 4 -21 4 -29 -1 -9 -5 -19 -5 -27 2 -8 6 -13 6 -13 1 0 -11 -29 -11
-48 1 -6 4 -12 3 -12 -2 0 -10 -30 -9 -48 2 -6 4 -12 3 -12 -2 0 -9 -42 -8
-57 1 -5 3 -15 2 -23 -3 -9 -5 -19 -5 -27 2 -8 6 -13 6 -13 1 0 -11 -29 -11
-48 1 -6 4 -12 3 -12 -2 0 -10 -30 -9 -48 2 -6 4 -12 3 -12 -2 0 -5 -12 -7
-27 -5 -61 8 -83 9 -83 2 0 -9 -20 -6 -37 4 -6 4 -14 3 -17 -2 -7 -10 -25 -9
-42 2 -6 3 -14 3 -18 0 -12 -12 -36 -12 -36 0 0 8 -3 8 -8 2 -8 -12 -22 -13
-39 -2 -6 4 -14 3 -17 -2 -7 -10 -25 -9 -42 2 -6 3 -14 3 -18 0 -11 -12 -40
-12 -53 -1 -8 6 -13 6 -13 1 0 -11 -29 -11 -48 1 -6 4 -12 3 -12 -1 0 -5 -9
-9 -20 -9 -11 0 -20 4 -20 9 0 6 -5 6 -12 1 -16 -11 -39 -11 -55 -1 -7 5 -13
4 -13 0 0 -5 -9 -9 -20 -9 -11 0 -20 4 -20 9 0 4 -6 5 -12 1 -19 -12 -48 -12
-48 -1 0 6 -5 6 -12 1 -16 -11 -39 -11 -55 -1 -7 5 -13 4 -13 0 0 -5 -9 -9
-20 -9 -11 0 -20 4 -20 9 0 4 -5 5 -12 1 -18 -11 -78 -11 -78 -1 0 5 -6 5 -13
-1 -8 -7 -18 -7 -27 -2 -8 5 -18 6 -23 3 -15 -9 -57 -11 -51 -2 3 5 0 9 -5 9
-6 0 -11 -4 -11 -9 0 -10 -19 -9 -37 2 -6 4 -14 3 -17 -2 -7 -10 -25 -9 -42 2
-6 3 -14 3 -18 0 -12 -12 -36 -12 -36 0 0 8 -3 8 -8 2 -8 -12 -22 -13 -39 -2
-6 4 -14 3 -17 -2 -7 -10 -25 -9 -43 2 -6 4 -14 3 -17 -2 -4 -5 -18 -7 -34 -5
-32 5 -39 5 -72 1 -14 -2 -32 0 -41 4 -8 4 -21 4 -29 -1 -9 -5 -19 -5 -27 2
-8 6 -13 6 -13 1 0 -11 -29 -11 -48 1 -6 4 -12 3 -12 -2 0 -10 -30 -9 -48 2
-6 4 -12 3 -12 -2 0 -9 -42 -8 -57 1 -5 3 -15 2 -23 -3 -9 -5 -19 -5 -27 2 -8
6 -13 6 -13 1 0 -11 -29 -11 -48 1 -6 4 -12 3 -12 -2 0 -10 -30 -9 -48 2 -6 4
-12 3 -12 -2 0 -5 -12 -7 -27 -5 -61 8 -83 9 -83 2 0 -9 -20 -6 -37 4 -6 4
-14 3 -17 -2 -7 -10 -25 -9 -42 2 -6 3 -14 3 -18 0 -12 -12 -36 -12 -36 0 0 8
-3 8 -8 2 -8 -12 -22 -13 -39 -2 -6 4 -14 3 -17 -2 -7 -10 -25 -9 -42 2 -6 3
-14 3 -18 0 -11 -12 -40 -12 -53 -1 -8 6 -13 6 -13 1 0 -11 -29 -11 -48 1 -6
4 -12 3 -12 -1 0 -5 -9 -9 -20 -9 -11 0 -20 4 -20 9 0 6 -5 6 -12 1 -16 -11
-39 -11 -55 -1 -7 5 -13 4 -13 0 0 -5 -9 -9 -20 -9 -11 0 -20 4 -20 9 0 4 -6
5 -12 1 -19 -12 -48 -12 -48 -1 0 6 -5 6 -12 1 -16 -11 -39 -11 -55 -1 -7 5
-13 4 -13 0 0 -5 -9 -9 -20 -9 -11 0 -20 4 -20 9 0 6 -5 6 -12 1 -16 -11 -39
-11 -55 -1 -7 5 -13 4 -13 -1 0 -12 -33 -10 -41 2 -4 4 -10 3 -13 -3z"/>
</g>
</svg>
